*
%FSLAX26Y26*%
%MOIN*%
%ADD10C,0.013780*%
%ADD11C,0.015748*%
%ADD12C,0.025591*%
%ADD13C,0.029528*%
%ADD14C,0.037402*%
%ADD15C,0.041339*%
%ADD16C,0.045276*%
%ADD17C,0.061024*%
%ADD18C,0.068898*%
%ADD19C,0.100394*%
%IPPOS*%
%LNi1w2431a0.out*%
%LPD*%
G75*
G54D10*
X78708Y237112D03*
X157508D03*
X236208D03*
X314908D03*
X393708D03*
X472408D03*
X551208D03*
X629908D03*
X708608D03*
X787408D03*
X866108D03*
X944908D03*
X1023608D03*
X1102308D03*
X1181108D03*
X1259808D03*
X1338608D03*
X1417308D03*
X1496008D03*
X1574808D03*
X1653508D03*
X1732308D03*
X1811008D03*
X1889708D03*
X1968508D03*
X2047208D03*
X2126008D03*
X2204708D03*
X2283408D03*
X2362208D03*
X2440908D03*
X2519708D03*
X2598408D03*
X2677108D03*
X2755908D03*
X2834608D03*
X2913408D03*
X2992108D03*
X3070808D03*
X3149608D03*
X3145108Y470712D03*
X3090108D03*
X3043108Y471812D03*
X2986108Y494812D03*
X2543108Y640812D03*
X3228308Y237112D03*
X3307108D03*
X3385808D03*
X3464508D03*
X3543308D03*
X3622008D03*
X3700808D03*
X3779508D03*
X3858208D03*
X3775608Y1661512D03*
Y1696912D03*
Y1736312D03*
X3354208Y2100912D03*
X3318108Y2170412D03*
X3311008Y2287512D03*
X3232308Y2275612D03*
X3212608Y2196912D03*
X3126008Y2204812D03*
X3094508Y2267812D03*
X3169308Y2295312D03*
X2739008Y1916212D03*
X2518008Y1901212D03*
X2463308D03*
X2438008Y1933212D03*
X2490008Y1932212D03*
X2380008Y1935212D03*
X2354008Y1901212D03*
X2047208Y1822912D03*
X1980308Y1818912D03*
X1933108D03*
X1960608Y1771712D03*
X1881908D03*
X1850408Y1830812D03*
X1665308Y2311112D03*
X2300008Y1319212D03*
Y1262212D03*
X2351008Y1262112D03*
Y1207712D03*
X2300008Y1205212D03*
X2349808Y929912D03*
X2383108Y796812D03*
X2437308Y801112D03*
X2475108Y803812D03*
X2512108D03*
X2480108Y842712D03*
X2655408Y1105912D03*
X2654008Y1169212D03*
X2721508D03*
X2722908Y1105912D03*
X2790408D03*
X2789008Y1169212D03*
X1612208Y2311112D03*
X1559008D03*
Y2356312D03*
X1574808Y2511912D03*
X1496008D03*
X1417308D03*
X1338608D03*
X1259808D03*
X1181108D03*
X1102308D03*
X1023608D03*
X944908D03*
X866108D03*
X787408D03*
X708608D03*
X629908D03*
X551208D03*
X472408D03*
X393708D03*
X314908D03*
X236208D03*
X157508D03*
X78708D03*
X1653508D03*
X1732308D03*
X1811008D03*
X1889708D03*
X1968508D03*
X2047208D03*
X2126008D03*
X2204708D03*
X2283408D03*
X2362208D03*
X2440908D03*
X2519708D03*
X2598408D03*
X2677108D03*
X2755908D03*
X2834608D03*
X2913408D03*
X2992108D03*
X3070808D03*
X3149608D03*
X1665308Y2356312D03*
X3228308Y2511912D03*
X3307108D03*
X3385808D03*
X3464508D03*
X3543308D03*
X3622008D03*
X3700808D03*
X3779508D03*
X3858208D03*
G54D11*
X196808Y354412D03*
X322808Y397712D03*
Y460712D03*
X393708D03*
Y393712D03*
Y330812D03*
X464508Y397712D03*
Y515812D03*
Y590612D03*
Y673312D03*
Y748112D03*
X322808D03*
X275608D03*
X322808Y681212D03*
Y606312D03*
X648608Y562012D03*
X779508Y527612D03*
Y610312D03*
Y708712D03*
X866108Y748112D03*
X818908Y480412D03*
X905508Y472512D03*
X1015708Y460612D03*
X1055108Y567012D03*
X1220508Y511912D03*
X1259808Y433112D03*
X1141708D03*
X1377908D03*
Y551212D03*
Y669312D03*
X1299208Y590612D03*
X1574808Y551212D03*
X1614208Y590612D03*
X1574808Y669312D03*
Y433112D03*
Y354412D03*
X1488208Y342612D03*
Y421312D03*
X647508Y383812D03*
X1712608Y358312D03*
X1763808D03*
X1814908D03*
X1866108D03*
Y407512D03*
X1814908Y409512D03*
Y460712D03*
X1866108D03*
X1763808D03*
Y409512D03*
X1712608D03*
Y460712D03*
X1732308Y590612D03*
X1850408D03*
X1972408Y606312D03*
X2005908Y572912D03*
X2244108Y472512D03*
X2283408Y393712D03*
X2204708D03*
X2244108Y354412D03*
X3586608Y409512D03*
Y468612D03*
X3590508Y661512D03*
X3795308Y681212D03*
Y586712D03*
Y484312D03*
X3744108Y417412D03*
X3358208Y677212D03*
X3412008Y843912D03*
X3582708Y1055212D03*
X3744108Y1023712D03*
X3779508Y1137812D03*
X3787408Y881912D03*
X3795308Y783512D03*
X3775608Y1795312D03*
X2940908Y1854412D03*
X2779508D03*
X2783408Y1933112D03*
X2696808Y1929212D03*
X2610208Y1941012D03*
X2410608Y1903212D03*
X2358208Y1740212D03*
X2342508Y1677212D03*
X2389708Y1618212D03*
X2366108Y1578812D03*
X2291308Y1531512D03*
X2265708Y1383912D03*
X2204708Y1220512D03*
X2145608D03*
X2086608D03*
X2027508D03*
X1779508Y1228412D03*
X1716508D03*
X1653508Y1397712D03*
X1870108Y1389812D03*
X1850408Y1567012D03*
X1923808Y1574912D03*
X1948808Y1618212D03*
X1811008Y1614212D03*
X1807108Y1905612D03*
X1889708Y1952812D03*
X1976408Y1992212D03*
X2035408Y1909512D03*
X2086608Y1866212D03*
X2126008Y1830812D03*
Y1771712D03*
X2145608Y1598512D03*
X2090508Y1590612D03*
X2213008Y2116212D03*
X2288008Y2074212D03*
X2350408Y2094512D03*
Y2303212D03*
X2440908D03*
X2192908Y2259912D03*
X2712608Y2267812D03*
X2708608Y2086712D03*
X2680708Y1771712D03*
X2696008Y1317212D03*
X2353008Y1155212D03*
X1901608Y980412D03*
X1866108D03*
X1893708Y941012D03*
X1929108Y948912D03*
X1574808Y905612D03*
Y787512D03*
X1220508Y866212D03*
X1161408Y972512D03*
Y1141812D03*
X1033508D03*
X1259808Y1181212D03*
X1338608D03*
X1417308D03*
Y1259912D03*
X1539408Y1401612D03*
X1590508D03*
X1594508Y1472512D03*
X1539408Y1476412D03*
X1405508Y1539412D03*
X1118108Y1531512D03*
X1035408Y1515812D03*
X1082708Y1606312D03*
X984208Y1850412D03*
X905508D03*
X826808D03*
X748008D03*
X633808D03*
X551208D03*
X472408D03*
X393708D03*
X311008Y1889812D03*
X314908Y1968612D03*
Y2047312D03*
Y2126012D03*
X456708Y2181212D03*
X433108Y2244112D03*
X354308Y2283512D03*
X629908Y2244112D03*
Y2165412D03*
Y2086712D03*
Y2007912D03*
Y1929212D03*
X748008Y1968612D03*
X866108D03*
Y2086712D03*
X748008D03*
Y2204812D03*
X866108D03*
X984208D03*
Y2086712D03*
Y1968612D03*
X1153508D03*
Y1897712D03*
X1240108Y1972512D03*
X1318908D03*
X1405508D03*
X1342508Y1881912D03*
X1472408Y1854412D03*
X1535408Y1909512D03*
X1614208Y2114212D03*
X157508Y2007912D03*
Y1732312D03*
Y1614212D03*
Y1496112D03*
Y1181212D03*
Y1086712D03*
Y984312D03*
X275608Y1023712D03*
Y1141812D03*
Y905612D03*
X322808Y885912D03*
X389708D03*
X460608D03*
X322808Y818912D03*
X783408Y846512D03*
X862208Y897712D03*
X933108Y948912D03*
X647508Y1090612D03*
X413408Y1633912D03*
X354308Y2362312D03*
X275608Y2401612D03*
X157508D03*
X629908Y2437112D03*
X700808D03*
X771608Y2441012D03*
X866108Y2322912D03*
X984208D03*
X1614208Y2354412D03*
X2066908Y2381912D03*
X2350408Y2370112D03*
X2437008Y2366212D03*
X2507908Y2437112D03*
G54D12*
X171208Y433112D03*
Y637812D03*
Y2110312D03*
Y2315012D03*
G54D13*
X2137808D03*
Y2381912D03*
G54D14*
X1744108Y2358312D03*
X1936208D03*
G54D15*
X1384208Y2354412D03*
X1484208D03*
G54D16*
X3736208Y2153612D03*
X161408Y1947712D03*
Y1847712D03*
Y1424112D03*
Y1324112D03*
Y900412D03*
Y800412D03*
X3736208Y2350412D03*
G54D17*
X2745108Y2165412D03*
X3038408D03*
G54D18*
X3248008Y429212D03*
Y594512D03*
X3464508D03*
Y429212D03*
Y759912D03*
X3248008D03*
Y1011912D03*
Y1177212D03*
Y1342612D03*
Y1507912D03*
X3464508D03*
Y1342612D03*
Y1177212D03*
Y1011912D03*
Y1763812D03*
Y1929212D03*
X3248008D03*
Y1763812D03*
G54D10*
X78708Y2591412D03*
X157508D03*
X236208D03*
X314908D03*
X393708D03*
X472408D03*
X551208D03*
X629908D03*
X708608D03*
X787408D03*
X866108D03*
X944908D03*
X1023608D03*
X1102308D03*
X1181108D03*
X1259808D03*
X1338608D03*
X1417308D03*
X1496008D03*
X1574808D03*
X1653508D03*
X1732308D03*
X1811008D03*
X1889708D03*
X1968508D03*
X2047208D03*
X2126008D03*
X2204708D03*
X2283408D03*
X2362208D03*
X2440908D03*
X2519708D03*
X2598408D03*
X2677108D03*
X2755908D03*
X2834608D03*
X2913408D03*
X2992108D03*
X3070808D03*
X3149608D03*
X3145108Y2825012D03*
X3090108D03*
X3043108Y2826112D03*
X2986108Y2849112D03*
X2543108Y2995112D03*
X3228308Y2591412D03*
X3307108D03*
X3385808D03*
X3464508D03*
X3543308D03*
X3622008D03*
X3700808D03*
X3779508D03*
X3858208D03*
X3775608Y4015812D03*
Y4051212D03*
Y4090612D03*
X3354208Y4455212D03*
X3318108Y4524712D03*
X3311008Y4641812D03*
X3232308Y4629912D03*
X3212608Y4551212D03*
X3126008Y4559112D03*
X3094508Y4622112D03*
X3169308Y4649612D03*
X2739008Y4270512D03*
X2518008Y4255512D03*
X2463308D03*
X2438008Y4287512D03*
X2490008Y4286512D03*
X2380008Y4289512D03*
X2354008Y4255512D03*
X2047208Y4177212D03*
X1980308Y4173212D03*
X1933108D03*
X1960608Y4126012D03*
X1881908D03*
X1850408Y4185112D03*
X1665308Y4665412D03*
X2300008Y3673512D03*
Y3616512D03*
X2351008Y3616412D03*
Y3562012D03*
X2300008Y3559512D03*
X2349808Y3284212D03*
X2383108Y3151112D03*
X2437308Y3155412D03*
X2475108Y3158112D03*
X2512108D03*
X2480108Y3197012D03*
X2655408Y3460212D03*
X2654008Y3523512D03*
X2721508D03*
X2722908Y3460212D03*
X2790408D03*
X2789008Y3523512D03*
X1612208Y4665412D03*
X1559008D03*
Y4710612D03*
X1574808Y4866212D03*
X1496008D03*
X1417308D03*
X1338608D03*
X1259808D03*
X1181108D03*
X1102308D03*
X1023608D03*
X944908D03*
X866108D03*
X787408D03*
X708608D03*
X629908D03*
X551208D03*
X472408D03*
X393708D03*
X314908D03*
X236208D03*
X157508D03*
X78708D03*
X1653508D03*
X1732308D03*
X1811008D03*
X1889708D03*
X1968508D03*
X2047208D03*
X2126008D03*
X2204708D03*
X2283408D03*
X2362208D03*
X2440908D03*
X2519708D03*
X2598408D03*
X2677108D03*
X2755908D03*
X2834608D03*
X2913408D03*
X2992108D03*
X3070808D03*
X3149608D03*
X1665308Y4710612D03*
X3228308Y4866212D03*
X3307108D03*
X3385808D03*
X3464508D03*
X3543308D03*
X3622008D03*
X3700808D03*
X3779508D03*
X3858208D03*
G54D11*
X196808Y2708712D03*
X322808Y2752012D03*
Y2815012D03*
X393708D03*
Y2748012D03*
Y2685112D03*
X464508Y2752012D03*
Y2870112D03*
Y2944912D03*
Y3027612D03*
Y3102412D03*
X322808D03*
X275608D03*
X322808Y3035512D03*
Y2960612D03*
X648608Y2916312D03*
X779508Y2881912D03*
Y2964612D03*
Y3063012D03*
X866108Y3102412D03*
X818908Y2834712D03*
X905508Y2826812D03*
X1015708Y2814912D03*
X1055108Y2921312D03*
X1220508Y2866212D03*
X1259808Y2787412D03*
X1141708D03*
X1377908D03*
Y2905512D03*
Y3023612D03*
X1299208Y2944912D03*
X1574808Y2905512D03*
X1614208Y2944912D03*
X1574808Y3023612D03*
Y2787412D03*
Y2708712D03*
X1488208Y2696912D03*
Y2775612D03*
X647508Y2738112D03*
X1712608Y2712612D03*
X1763808D03*
X1814908D03*
X1866108D03*
Y2761812D03*
X1814908Y2763812D03*
Y2815012D03*
X1866108D03*
X1763808D03*
Y2763812D03*
X1712608D03*
Y2815012D03*
X1732308Y2944912D03*
X1850408D03*
X1972408Y2960612D03*
X2005908Y2927212D03*
X2244108Y2826812D03*
X2283408Y2748012D03*
X2204708D03*
X2244108Y2708712D03*
X3586608Y2763812D03*
Y2822912D03*
X3590508Y3015812D03*
X3795308Y3035512D03*
Y2941012D03*
Y2838612D03*
X3744108Y2771712D03*
X3358208Y3031512D03*
X3412008Y3198212D03*
X3582708Y3409512D03*
X3744108Y3378012D03*
X3779508Y3492112D03*
X3787408Y3236212D03*
X3795308Y3137812D03*
X3775608Y4149612D03*
X2940908Y4208712D03*
X2779508D03*
X2783408Y4287412D03*
X2696808Y4283512D03*
X2610208Y4295312D03*
X2410608Y4257512D03*
X2358208Y4094512D03*
X2342508Y4031512D03*
X2389708Y3972512D03*
X2366108Y3933112D03*
X2291308Y3885812D03*
X2265708Y3738212D03*
X2204708Y3574812D03*
X2145608D03*
X2086608D03*
X2027508D03*
X1779508Y3582712D03*
X1716508D03*
X1653508Y3752012D03*
X1870108Y3744112D03*
X1850408Y3921312D03*
X1923808Y3929212D03*
X1948808Y3972512D03*
X1811008Y3968512D03*
X1807108Y4259912D03*
X1889708Y4307112D03*
X1976408Y4346512D03*
X2035408Y4263812D03*
X2086608Y4220512D03*
X2126008Y4185112D03*
Y4126012D03*
X2145608Y3952812D03*
X2090508Y3944912D03*
X2213008Y4470512D03*
X2288008Y4428512D03*
X2350408Y4448812D03*
Y4657512D03*
X2440908D03*
X2192908Y4614212D03*
X2712608Y4622112D03*
X2708608Y4441012D03*
X2680708Y4126012D03*
X2696008Y3671512D03*
X2353008Y3509512D03*
X1901608Y3334712D03*
X1866108D03*
X1893708Y3295312D03*
X1929108Y3303212D03*
X1574808Y3259912D03*
Y3141812D03*
X1220508Y3220512D03*
X1161408Y3326812D03*
Y3496112D03*
X1033508D03*
X1259808Y3535512D03*
X1338608D03*
X1417308D03*
Y3614212D03*
X1539408Y3755912D03*
X1590508D03*
X1594508Y3826812D03*
X1539408Y3830712D03*
X1405508Y3893712D03*
X1118108Y3885812D03*
X1035408Y3870112D03*
X1082708Y3960612D03*
X984208Y4204712D03*
X905508D03*
X826808D03*
X748008D03*
X633808D03*
X551208D03*
X472408D03*
X393708D03*
X311008Y4244112D03*
X314908Y4322912D03*
Y4401612D03*
Y4480312D03*
X456708Y4535512D03*
X433108Y4598412D03*
X354308Y4637812D03*
X629908Y4598412D03*
Y4519712D03*
Y4441012D03*
Y4362212D03*
Y4283512D03*
X748008Y4322912D03*
X866108D03*
Y4441012D03*
X748008D03*
Y4559112D03*
X866108D03*
X984208D03*
Y4441012D03*
Y4322912D03*
X1153508D03*
Y4252012D03*
X1240108Y4326812D03*
X1318908D03*
X1405508D03*
X1342508Y4236212D03*
X1472408Y4208712D03*
X1535408Y4263812D03*
X1614208Y4468512D03*
X157508Y4362212D03*
Y4086612D03*
Y3968512D03*
Y3850412D03*
Y3535512D03*
Y3441012D03*
Y3338612D03*
X275608Y3378012D03*
Y3496112D03*
Y3259912D03*
X322808Y3240212D03*
X389708D03*
X460608D03*
X322808Y3173212D03*
X783408Y3200812D03*
X862208Y3252012D03*
X933108Y3303212D03*
X647508Y3444912D03*
X413408Y3988212D03*
X354308Y4716612D03*
X275608Y4755912D03*
X157508D03*
X629908Y4791412D03*
X700808D03*
X771608Y4795312D03*
X866108Y4677212D03*
X984208D03*
X1614208Y4708712D03*
X2066908Y4736212D03*
X2350408Y4724412D03*
X2437008Y4720512D03*
X2507908Y4791412D03*
G54D12*
X171208Y2787412D03*
Y2992112D03*
Y4464612D03*
Y4669312D03*
G54D13*
X2137808D03*
Y4736212D03*
G54D14*
X1744108Y4712612D03*
X1936208D03*
G54D15*
X1384208Y4708712D03*
X1484208D03*
G54D16*
X3736208Y4507912D03*
X161408Y4302012D03*
Y4202012D03*
Y3778412D03*
Y3678412D03*
Y3254712D03*
Y3154712D03*
X3736208Y4704712D03*
G54D17*
X2745108Y4519712D03*
X3038408D03*
G54D18*
X3248008Y2783512D03*
Y2948812D03*
X3464508D03*
Y2783512D03*
Y3114212D03*
X3248008D03*
Y3366212D03*
Y3531512D03*
Y3696912D03*
Y3862212D03*
X3464508D03*
Y3696912D03*
Y3531512D03*
Y3366212D03*
Y4118112D03*
Y4283512D03*
X3248008D03*
Y4118112D03*
G54D10*
X78708Y4945712D03*
X157508D03*
X236208D03*
X314908D03*
X393708D03*
X472408D03*
X551208D03*
X629908D03*
X708608D03*
X787408D03*
X866108D03*
X944908D03*
X1023608D03*
X1102308D03*
X1181108D03*
X1259808D03*
X1338608D03*
X1417308D03*
X1496008D03*
X1574808D03*
X1653508D03*
X1732308D03*
X1811008D03*
X1889708D03*
X1968508D03*
X2047208D03*
X2126008D03*
X2204708D03*
X2283408D03*
X2362208D03*
X2440908D03*
X2519708D03*
X2598408D03*
X2677108D03*
X2755908D03*
X2834608D03*
X2913408D03*
X2992108D03*
X3070808D03*
X3149608D03*
X3145108Y5179312D03*
X3090108D03*
X3043108Y5180412D03*
X2986108Y5203412D03*
X2543108Y5349412D03*
X3228308Y4945712D03*
X3307108D03*
X3385808D03*
X3464508D03*
X3543308D03*
X3622008D03*
X3700808D03*
X3779508D03*
X3858208D03*
X3775608Y6370112D03*
Y6405512D03*
Y6444912D03*
X3354208Y6809512D03*
X3318108Y6879012D03*
X3311008Y6996112D03*
X3232308Y6984212D03*
X3212608Y6905512D03*
X3126008Y6913412D03*
X3094508Y6976412D03*
X3169308Y7003912D03*
X2739008Y6624812D03*
X2518008Y6609812D03*
X2463308D03*
X2438008Y6641812D03*
X2490008Y6640812D03*
X2380008Y6643812D03*
X2354008Y6609812D03*
X2047208Y6531512D03*
X1980308Y6527512D03*
X1933108D03*
X1960608Y6480312D03*
X1881908D03*
X1850408Y6539412D03*
X1665308Y7019712D03*
X2300008Y6027812D03*
Y5970812D03*
X2351008Y5970712D03*
Y5916312D03*
X2300008Y5913812D03*
X2349808Y5638512D03*
X2383108Y5505412D03*
X2437308Y5509712D03*
X2475108Y5512412D03*
X2512108D03*
X2480108Y5551312D03*
X2655408Y5814512D03*
X2654008Y5877812D03*
X2721508D03*
X2722908Y5814512D03*
X2790408D03*
X2789008Y5877812D03*
X1612208Y7019712D03*
X1559008D03*
Y7064912D03*
X1574808Y7220512D03*
X1496008D03*
X1417308D03*
X1338608D03*
X1259808D03*
X1181108D03*
X1102308D03*
X1023608D03*
X944908D03*
X866108D03*
X787408D03*
X708608D03*
X629908D03*
X551208D03*
X472408D03*
X393708D03*
X314908D03*
X236208D03*
X157508D03*
X78708D03*
X1653508D03*
X1732308D03*
X1811008D03*
X1889708D03*
X1968508D03*
X2047208D03*
X2126008D03*
X2204708D03*
X2283408D03*
X2362208D03*
X2440908D03*
X2519708D03*
X2598408D03*
X2677108D03*
X2755908D03*
X2834608D03*
X2913408D03*
X2992108D03*
X3070808D03*
X3149608D03*
X1665308Y7064912D03*
X3228308Y7220512D03*
X3307108D03*
X3385808D03*
X3464508D03*
X3543308D03*
X3622008D03*
X3700808D03*
X3779508D03*
X3858208D03*
G54D11*
X196808Y5063012D03*
X322808Y5106312D03*
Y5169312D03*
X393708D03*
Y5102312D03*
Y5039412D03*
X464508Y5106312D03*
Y5224412D03*
Y5299212D03*
Y5381912D03*
Y5456712D03*
X322808D03*
X275608D03*
X322808Y5389812D03*
Y5314912D03*
X648608Y5270612D03*
X779508Y5236212D03*
Y5318912D03*
Y5417312D03*
X866108Y5456712D03*
X818908Y5189012D03*
X905508Y5181112D03*
X1015708Y5169212D03*
X1055108Y5275612D03*
X1220508Y5220512D03*
X1259808Y5141712D03*
X1141708D03*
X1377908D03*
Y5259812D03*
Y5377912D03*
X1299208Y5299212D03*
X1574808Y5259812D03*
X1614208Y5299212D03*
X1574808Y5377912D03*
Y5141712D03*
Y5063012D03*
X1488208Y5051212D03*
Y5129912D03*
X647508Y5092412D03*
X1712608Y5066912D03*
X1763808D03*
X1814908D03*
X1866108D03*
Y5116112D03*
X1814908Y5118112D03*
Y5169312D03*
X1866108D03*
X1763808D03*
Y5118112D03*
X1712608D03*
Y5169312D03*
X1732308Y5299212D03*
X1850408D03*
X1972408Y5314912D03*
X2005908Y5281512D03*
X2244108Y5181112D03*
X2283408Y5102312D03*
X2204708D03*
X2244108Y5063012D03*
X3586608Y5118112D03*
Y5177212D03*
X3590508Y5370112D03*
X3795308Y5389812D03*
Y5295312D03*
Y5192912D03*
X3744108Y5126012D03*
X3358208Y5385812D03*
X3412008Y5552512D03*
X3582708Y5763812D03*
X3744108Y5732312D03*
X3779508Y5846412D03*
X3787408Y5590512D03*
X3795308Y5492112D03*
X3775608Y6503912D03*
X2940908Y6563012D03*
X2779508D03*
X2783408Y6641712D03*
X2696808Y6637812D03*
X2610208Y6649612D03*
X2410608Y6611812D03*
X2358208Y6448812D03*
X2342508Y6385812D03*
X2389708Y6326812D03*
X2366108Y6287412D03*
X2291308Y6240112D03*
X2265708Y6092512D03*
X2204708Y5929112D03*
X2145608D03*
X2086608D03*
X2027508D03*
X1779508Y5937012D03*
X1716508D03*
X1653508Y6106312D03*
X1870108Y6098412D03*
X1850408Y6275612D03*
X1923808Y6283512D03*
X1948808Y6326812D03*
X1811008Y6322812D03*
X1807108Y6614212D03*
X1889708Y6661412D03*
X1976408Y6700812D03*
X2035408Y6618112D03*
X2086608Y6574812D03*
X2126008Y6539412D03*
Y6480312D03*
X2145608Y6307112D03*
X2090508Y6299212D03*
X2213008Y6824812D03*
X2288008Y6782812D03*
X2350408Y6803112D03*
Y7011812D03*
X2440908D03*
X2192908Y6968512D03*
X2712608Y6976412D03*
X2708608Y6795312D03*
X2680708Y6480312D03*
X2696008Y6025812D03*
X2353008Y5863812D03*
X1901608Y5689012D03*
X1866108D03*
X1893708Y5649612D03*
X1929108Y5657512D03*
X1574808Y5614212D03*
Y5496112D03*
X1220508Y5574812D03*
X1161408Y5681112D03*
Y5850412D03*
X1033508D03*
X1259808Y5889812D03*
X1338608D03*
X1417308D03*
Y5968512D03*
X1539408Y6110212D03*
X1590508D03*
X1594508Y6181112D03*
X1539408Y6185012D03*
X1405508Y6248012D03*
X1118108Y6240112D03*
X1035408Y6224412D03*
X1082708Y6314912D03*
X984208Y6559012D03*
X905508D03*
X826808D03*
X748008D03*
X633808D03*
X551208D03*
X472408D03*
X393708D03*
X311008Y6598412D03*
X314908Y6677212D03*
Y6755912D03*
Y6834612D03*
X456708Y6889812D03*
X433108Y6952712D03*
X354308Y6992112D03*
X629908Y6952712D03*
Y6874012D03*
Y6795312D03*
Y6716512D03*
Y6637812D03*
X748008Y6677212D03*
X866108D03*
Y6795312D03*
X748008D03*
Y6913412D03*
X866108D03*
X984208D03*
Y6795312D03*
Y6677212D03*
X1153508D03*
Y6606312D03*
X1240108Y6681112D03*
X1318908D03*
X1405508D03*
X1342508Y6590512D03*
X1472408Y6563012D03*
X1535408Y6618112D03*
X1614208Y6822812D03*
X157508Y6716512D03*
Y6440912D03*
Y6322812D03*
Y6204712D03*
Y5889812D03*
Y5795312D03*
Y5692912D03*
X275608Y5732312D03*
Y5850412D03*
Y5614212D03*
X322808Y5594512D03*
X389708D03*
X460608D03*
X322808Y5527512D03*
X783408Y5555112D03*
X862208Y5606312D03*
X933108Y5657512D03*
X647508Y5799212D03*
X413408Y6342512D03*
X354308Y7070912D03*
X275608Y7110212D03*
X157508D03*
X629908Y7145712D03*
X700808D03*
X771608Y7149612D03*
X866108Y7031512D03*
X984208D03*
X1614208Y7063012D03*
X2066908Y7090512D03*
X2350408Y7078712D03*
X2437008Y7074812D03*
X2507908Y7145712D03*
G54D12*
X171208Y5141712D03*
Y5346412D03*
Y6818912D03*
Y7023612D03*
G54D13*
X2137808D03*
Y7090512D03*
G54D14*
X1744108Y7066912D03*
X1936208D03*
G54D15*
X1384208Y7063012D03*
X1484208D03*
G54D16*
X3736208Y6862212D03*
X161408Y6656312D03*
Y6556312D03*
Y6132712D03*
Y6032712D03*
Y5609012D03*
Y5509012D03*
X3736208Y7059012D03*
G54D17*
X2745108Y6874012D03*
X3038408D03*
G54D18*
X3248008Y5137812D03*
Y5303112D03*
X3464508D03*
Y5137812D03*
Y5468512D03*
X3248008D03*
Y5720512D03*
Y5885812D03*
Y6051212D03*
Y6216512D03*
X3464508D03*
Y6051212D03*
Y5885812D03*
Y5720512D03*
Y6472412D03*
Y6637812D03*
X3248008D03*
Y6472412D03*
G54D10*
X78708Y7300012D03*
X157508D03*
X236208D03*
X314908D03*
X393708D03*
X472408D03*
X551208D03*
X629908D03*
X708608D03*
X787408D03*
X866108D03*
X944908D03*
X1023608D03*
X1102308D03*
X1181108D03*
X1259808D03*
X1338608D03*
X1417308D03*
X1496008D03*
X1574808D03*
X1653508D03*
X1732308D03*
X1811008D03*
X1889708D03*
X1968508D03*
X2047208D03*
X2126008D03*
X2204708D03*
X2283408D03*
X2362208D03*
X2440908D03*
X2519708D03*
X2598408D03*
X2677108D03*
X2755908D03*
X2834608D03*
X2913408D03*
X2992108D03*
X3070808D03*
X3149608D03*
X3145108Y7533612D03*
X3090108D03*
X3043108Y7534712D03*
X2986108Y7557712D03*
X2543108Y7703712D03*
X3228308Y7300012D03*
X3307108D03*
X3385808D03*
X3464508D03*
X3543308D03*
X3622008D03*
X3700808D03*
X3779508D03*
X3858208D03*
X3775608Y8724412D03*
Y8759812D03*
Y8799212D03*
X3354208Y9163812D03*
X3318108Y9233312D03*
X3311008Y9350412D03*
X3232308Y9338512D03*
X3212608Y9259812D03*
X3126008Y9267712D03*
X3094508Y9330712D03*
X3169308Y9358212D03*
X2739008Y8979112D03*
X2518008Y8964112D03*
X2463308D03*
X2438008Y8996112D03*
X2490008Y8995112D03*
X2380008Y8998112D03*
X2354008Y8964112D03*
X2047208Y8885812D03*
X1980308Y8881812D03*
X1933108D03*
X1960608Y8834612D03*
X1881908D03*
X1850408Y8893712D03*
X1665308Y9374012D03*
X2300008Y8382112D03*
Y8325112D03*
X2351008Y8325012D03*
Y8270612D03*
X2300008Y8268112D03*
X2349808Y7992812D03*
X2383108Y7859712D03*
X2437308Y7864012D03*
X2475108Y7866712D03*
X2512108D03*
X2480108Y7905612D03*
X2655408Y8168812D03*
X2654008Y8232112D03*
X2721508D03*
X2722908Y8168812D03*
X2790408D03*
X2789008Y8232112D03*
X1612208Y9374012D03*
X1559008D03*
Y9419212D03*
X1574808Y9574812D03*
X1496008D03*
X1417308D03*
X1338608D03*
X1259808D03*
X1181108D03*
X1102308D03*
X1023608D03*
X944908D03*
X866108D03*
X787408D03*
X708608D03*
X629908D03*
X551208D03*
X472408D03*
X393708D03*
X314908D03*
X236208D03*
X157508D03*
X78708D03*
X1653508D03*
X1732308D03*
X1811008D03*
X1889708D03*
X1968508D03*
X2047208D03*
X2126008D03*
X2204708D03*
X2283408D03*
X2362208D03*
X2440908D03*
X2519708D03*
X2598408D03*
X2677108D03*
X2755908D03*
X2834608D03*
X2913408D03*
X2992108D03*
X3070808D03*
X3149608D03*
X1665308Y9419212D03*
X3228308Y9574812D03*
X3307108D03*
X3385808D03*
X3464508D03*
X3543308D03*
X3622008D03*
X3700808D03*
X3779508D03*
X3858208D03*
G54D11*
X196808Y7417312D03*
X322808Y7460612D03*
Y7523612D03*
X393708D03*
Y7456612D03*
Y7393712D03*
X464508Y7460612D03*
Y7578712D03*
Y7653512D03*
Y7736212D03*
Y7811012D03*
X322808D03*
X275608D03*
X322808Y7744112D03*
Y7669212D03*
X648608Y7624912D03*
X779508Y7590512D03*
Y7673212D03*
Y7771612D03*
X866108Y7811012D03*
X818908Y7543312D03*
X905508Y7535412D03*
X1015708Y7523512D03*
X1055108Y7629912D03*
X1220508Y7574812D03*
X1259808Y7496012D03*
X1141708D03*
X1377908D03*
Y7614112D03*
Y7732212D03*
X1299208Y7653512D03*
X1574808Y7614112D03*
X1614208Y7653512D03*
X1574808Y7732212D03*
Y7496012D03*
Y7417312D03*
X1488208Y7405512D03*
Y7484212D03*
X647508Y7446712D03*
X1712608Y7421212D03*
X1763808D03*
X1814908D03*
X1866108D03*
Y7470412D03*
X1814908Y7472412D03*
Y7523612D03*
X1866108D03*
X1763808D03*
Y7472412D03*
X1712608D03*
Y7523612D03*
X1732308Y7653512D03*
X1850408D03*
X1972408Y7669212D03*
X2005908Y7635812D03*
X2244108Y7535412D03*
X2283408Y7456612D03*
X2204708D03*
X2244108Y7417312D03*
X3586608Y7472412D03*
Y7531512D03*
X3590508Y7724412D03*
X3795308Y7744112D03*
Y7649612D03*
Y7547212D03*
X3744108Y7480312D03*
X3358208Y7740112D03*
X3412008Y7906812D03*
X3582708Y8118112D03*
X3744108Y8086612D03*
X3779508Y8200712D03*
X3787408Y7944812D03*
X3795308Y7846412D03*
X3775608Y8858212D03*
X2940908Y8917312D03*
X2779508D03*
X2783408Y8996012D03*
X2696808Y8992112D03*
X2610208Y9003912D03*
X2410608Y8966112D03*
X2358208Y8803112D03*
X2342508Y8740112D03*
X2389708Y8681112D03*
X2366108Y8641712D03*
X2291308Y8594412D03*
X2265708Y8446812D03*
X2204708Y8283412D03*
X2145608D03*
X2086608D03*
X2027508D03*
X1779508Y8291312D03*
X1716508D03*
X1653508Y8460612D03*
X1870108Y8452712D03*
X1850408Y8629912D03*
X1923808Y8637812D03*
X1948808Y8681112D03*
X1811008Y8677112D03*
X1807108Y8968512D03*
X1889708Y9015712D03*
X1976408Y9055112D03*
X2035408Y8972412D03*
X2086608Y8929112D03*
X2126008Y8893712D03*
Y8834612D03*
X2145608Y8661412D03*
X2090508Y8653512D03*
X2213008Y9179112D03*
X2288008Y9137112D03*
X2350408Y9157412D03*
Y9366112D03*
X2440908D03*
X2192908Y9322812D03*
X2712608Y9330712D03*
X2708608Y9149612D03*
X2680708Y8834612D03*
X2696008Y8380112D03*
X2353008Y8218112D03*
X1901608Y8043312D03*
X1866108D03*
X1893708Y8003912D03*
X1929108Y8011812D03*
X1574808Y7968512D03*
Y7850412D03*
X1220508Y7929112D03*
X1161408Y8035412D03*
Y8204712D03*
X1033508D03*
X1259808Y8244112D03*
X1338608D03*
X1417308D03*
Y8322812D03*
X1539408Y8464512D03*
X1590508D03*
X1594508Y8535412D03*
X1539408Y8539312D03*
X1405508Y8602312D03*
X1118108Y8594412D03*
X1035408Y8578712D03*
X1082708Y8669212D03*
X984208Y8913312D03*
X905508D03*
X826808D03*
X748008D03*
X633808D03*
X551208D03*
X472408D03*
X393708D03*
X311008Y8952712D03*
X314908Y9031512D03*
Y9110212D03*
Y9188912D03*
X456708Y9244112D03*
X433108Y9307012D03*
X354308Y9346412D03*
X629908Y9307012D03*
Y9228312D03*
Y9149612D03*
Y9070812D03*
Y8992112D03*
X748008Y9031512D03*
X866108D03*
Y9149612D03*
X748008D03*
Y9267712D03*
X866108D03*
X984208D03*
Y9149612D03*
Y9031512D03*
X1153508D03*
Y8960612D03*
X1240108Y9035412D03*
X1318908D03*
X1405508D03*
X1342508Y8944812D03*
X1472408Y8917312D03*
X1535408Y8972412D03*
X1614208Y9177112D03*
X157508Y9070812D03*
Y8795212D03*
Y8677112D03*
Y8559012D03*
Y8244112D03*
Y8149612D03*
Y8047212D03*
X275608Y8086612D03*
Y8204712D03*
Y7968512D03*
X322808Y7948812D03*
X389708D03*
X460608D03*
X322808Y7881812D03*
X783408Y7909412D03*
X862208Y7960612D03*
X933108Y8011812D03*
X647508Y8153512D03*
X413408Y8696812D03*
X354308Y9425212D03*
X275608Y9464512D03*
X157508D03*
X629908Y9500012D03*
X700808D03*
X771608Y9503912D03*
X866108Y9385812D03*
X984208D03*
X1614208Y9417312D03*
X2066908Y9444812D03*
X2350408Y9433012D03*
X2437008Y9429112D03*
X2507908Y9500012D03*
G54D12*
X171208Y7496012D03*
Y7700712D03*
Y9173212D03*
Y9377912D03*
G54D13*
X2137808D03*
Y9444812D03*
G54D14*
X1744108Y9421212D03*
X1936208D03*
G54D15*
X1384208Y9417312D03*
X1484208D03*
G54D16*
X3736208Y9216512D03*
X161408Y9010612D03*
Y8910612D03*
Y8487012D03*
Y8387012D03*
Y7963312D03*
Y7863312D03*
X3736208Y9413312D03*
G54D17*
X2745108Y9228312D03*
X3038408D03*
G54D18*
X3248008Y7492112D03*
Y7657412D03*
X3464508D03*
Y7492112D03*
Y7822812D03*
X3248008D03*
Y8074812D03*
Y8240112D03*
Y8405512D03*
Y8570812D03*
X3464508D03*
Y8405512D03*
Y8240112D03*
Y8074812D03*
Y8826712D03*
Y8992112D03*
X3248008D03*
Y8826712D03*
G54D10*
X7795308Y2511012D03*
G54D10*
X7716508D03*
G54D10*
X7637808D03*
G54D10*
X7559108D03*
G54D10*
X7480308D03*
G54D10*
X7401608D03*
G54D10*
X7322808D03*
G54D10*
X7244108D03*
G54D10*
X7165408D03*
G54D10*
X7086608D03*
G54D10*
X7007908D03*
G54D10*
X6929108D03*
G54D10*
X6850408D03*
G54D10*
X6771708D03*
G54D10*
X6692908D03*
G54D10*
X6614208D03*
G54D10*
X6535408D03*
G54D10*
X6456708D03*
G54D10*
X6378008D03*
G54D10*
X6299208D03*
G54D10*
X6220508D03*
G54D10*
X6141708D03*
G54D10*
X6063008D03*
G54D10*
X5984308D03*
G54D10*
X5905508D03*
G54D10*
X5826808D03*
G54D10*
X5748008D03*
G54D10*
X5669308D03*
G54D10*
X5590608D03*
G54D10*
X5511808D03*
G54D10*
X5433108D03*
G54D10*
X5354308D03*
G54D10*
X5275608D03*
G54D10*
X5196908D03*
G54D10*
X5118108D03*
G54D10*
X5039408D03*
G54D10*
X4960608D03*
G54D10*
X4881908D03*
G54D10*
X4803208D03*
G54D10*
X4724408D03*
G54D10*
X4728908Y2277412D03*
G54D10*
X4783908D03*
G54D10*
X4830908Y2276312D03*
G54D10*
X4887908Y2253312D03*
G54D10*
X5330908Y2107312D03*
G54D10*
X4645708Y2511012D03*
G54D10*
X4566908D03*
G54D10*
X4488208D03*
G54D10*
X4409508D03*
G54D10*
X4330708D03*
G54D10*
X4252008D03*
G54D10*
X4173208D03*
G54D10*
X4094508D03*
G54D10*
X4015808D03*
G54D10*
X4098408Y1086612D03*
G54D10*
Y1051212D03*
G54D10*
Y1011812D03*
G54D10*
X4519808Y647212D03*
G54D10*
X4555908Y577712D03*
G54D10*
X4563008Y460612D03*
G54D10*
X4641708Y472512D03*
G54D10*
X4661408Y551212D03*
G54D10*
X4748008Y543312D03*
G54D10*
X4779508Y480312D03*
G54D10*
X4704708Y452812D03*
G54D10*
X5135008Y831912D03*
G54D10*
X5356008Y846912D03*
G54D10*
X5410708D03*
G54D10*
X5436008Y814912D03*
G54D10*
X5384008Y815912D03*
G54D10*
X5494008Y812912D03*
G54D10*
X5520008Y846912D03*
G54D10*
X5826808Y925212D03*
G54D10*
X5893708Y929212D03*
G54D10*
X5940908D03*
G54D10*
X5913408Y976412D03*
G54D10*
X5992108D03*
G54D10*
X6023608Y917312D03*
G54D10*
X6208708Y437012D03*
G54D10*
X5574008Y1428912D03*
G54D10*
Y1485912D03*
G54D10*
X5523008Y1486012D03*
G54D10*
Y1540412D03*
G54D10*
X5574008Y1542912D03*
G54D10*
X5524208Y1818212D03*
G54D10*
X5490908Y1951312D03*
G54D10*
X5436708Y1947012D03*
G54D10*
X5398908Y1944312D03*
G54D10*
X5361908D03*
G54D10*
X5393908Y1905412D03*
G54D10*
X5218608Y1642212D03*
G54D10*
X5220008Y1578912D03*
G54D10*
X5152508D03*
G54D10*
X5151108Y1642212D03*
G54D10*
X5083608D03*
G54D10*
X5085008Y1578912D03*
G54D10*
X6261808Y437012D03*
G54D10*
X6315008D03*
G54D10*
Y391812D03*
G54D10*
X6299208Y236212D03*
G54D10*
X6378008D03*
G54D10*
X6456708D03*
G54D10*
X6535408D03*
G54D10*
X6614208D03*
G54D10*
X6692908D03*
G54D10*
X6771708D03*
G54D10*
X6850408D03*
G54D10*
X6929108D03*
G54D10*
X7007908D03*
G54D10*
X7086608D03*
G54D10*
X7165408D03*
G54D10*
X7244108D03*
G54D10*
X7322808D03*
G54D10*
X7401608D03*
G54D10*
X7480308D03*
G54D10*
X7559108D03*
G54D10*
X7637808D03*
G54D10*
X7716508D03*
G54D10*
X7795308D03*
G54D10*
X6220508D03*
G54D10*
X6141708D03*
G54D10*
X6063008D03*
G54D10*
X5984308D03*
G54D10*
X5905508D03*
G54D10*
X5826808D03*
G54D10*
X5748008D03*
G54D10*
X5669308D03*
G54D10*
X5590608D03*
G54D10*
X5511808D03*
G54D10*
X5433108D03*
G54D10*
X5354308D03*
G54D10*
X5275608D03*
G54D10*
X5196908D03*
G54D10*
X5118108D03*
G54D10*
X5039408D03*
G54D10*
X4960608D03*
G54D10*
X4881908D03*
G54D10*
X4803208D03*
G54D10*
X4724408D03*
G54D10*
X6208708Y391812D03*
G54D10*
X4645708Y236212D03*
G54D10*
X4566908D03*
G54D10*
X4488208D03*
G54D10*
X4409508D03*
G54D10*
X4330708D03*
G54D10*
X4252008D03*
G54D10*
X4173208D03*
G54D10*
X4094508D03*
G54D10*
X4015808D03*
G54D11*
X7677208Y2393712D03*
G54D11*
X7551208Y2350412D03*
G54D11*
Y2287412D03*
G54D11*
X7480308D03*
G54D11*
Y2354412D03*
G54D11*
Y2417312D03*
G54D11*
X7409508Y2350412D03*
G54D11*
Y2232312D03*
G54D11*
Y2157512D03*
G54D11*
Y2074812D03*
G54D11*
Y2000012D03*
G54D11*
X7551208D03*
G54D11*
X7598408D03*
G54D11*
X7551208Y2066912D03*
G54D11*
Y2141812D03*
G54D11*
X7225408Y2186112D03*
G54D11*
X7094508Y2220512D03*
G54D11*
Y2137812D03*
G54D11*
Y2039412D03*
G54D11*
X7007908Y2000012D03*
G54D11*
X7055108Y2267712D03*
G54D11*
X6968508Y2275612D03*
G54D11*
X6858308Y2287512D03*
G54D11*
X6818908Y2181112D03*
G54D11*
X6653508Y2236212D03*
G54D11*
X6614208Y2315012D03*
G54D11*
X6732308D03*
G54D11*
X6496108D03*
G54D11*
Y2196912D03*
G54D11*
Y2078812D03*
G54D11*
X6574808Y2157512D03*
G54D11*
X6299208Y2196912D03*
G54D11*
X6259808Y2157512D03*
G54D11*
X6299208Y2078812D03*
G54D11*
Y2315012D03*
G54D11*
Y2393712D03*
G54D11*
X6385808Y2405512D03*
G54D11*
Y2326812D03*
G54D11*
X7226508Y2364312D03*
G54D11*
X6161408Y2389812D03*
G54D11*
X6110208D03*
G54D11*
X6059108D03*
G54D11*
X6007908D03*
G54D11*
Y2340612D03*
G54D11*
X6059108Y2338612D03*
G54D11*
Y2287412D03*
G54D11*
X6007908D03*
G54D11*
X6110208D03*
G54D11*
Y2338612D03*
G54D11*
X6161408D03*
G54D11*
Y2287412D03*
G54D11*
X6141708Y2157512D03*
G54D11*
X6023608D03*
G54D11*
X5901608Y2141812D03*
G54D11*
X5868108Y2175212D03*
G54D11*
X5629908Y2275612D03*
G54D11*
X5590608Y2354412D03*
G54D11*
X5669308D03*
G54D11*
X5629908Y2393712D03*
G54D11*
X4287408Y2338612D03*
G54D11*
Y2279512D03*
G54D11*
X4283508Y2086612D03*
G54D11*
X4078708Y2066912D03*
G54D11*
Y2161412D03*
G54D11*
Y2263812D03*
G54D11*
X4129908Y2330712D03*
G54D11*
X4515808Y2070912D03*
G54D11*
X4462008Y1904212D03*
G54D11*
X4291308Y1692912D03*
G54D11*
X4129908Y1724412D03*
G54D11*
X4094508Y1610312D03*
G54D11*
X4086608Y1866212D03*
G54D11*
X4078708Y1964612D03*
G54D11*
X4098408Y952812D03*
G54D11*
X4933108Y893712D03*
G54D11*
X5094508D03*
G54D11*
X5090608Y815012D03*
G54D11*
X5177208Y818912D03*
G54D11*
X5263808Y807112D03*
G54D11*
X5463408Y844912D03*
G54D11*
X5515808Y1007912D03*
G54D11*
X5531508Y1070912D03*
G54D11*
X5484308Y1129912D03*
G54D11*
X5507908Y1169312D03*
G54D11*
X5582708Y1216612D03*
G54D11*
X5608308Y1364212D03*
G54D11*
X5669308Y1527612D03*
G54D11*
X5728408D03*
G54D11*
X5787408D03*
G54D11*
X5846508D03*
G54D11*
X6094508Y1519712D03*
G54D11*
X6157508D03*
G54D11*
X6220508Y1350412D03*
G54D11*
X6003908Y1358312D03*
G54D11*
X6023608Y1181112D03*
G54D11*
X5950208Y1173212D03*
G54D11*
X5925208Y1129912D03*
G54D11*
X6063008Y1133912D03*
G54D11*
X6066908Y842512D03*
G54D11*
X5984308Y795312D03*
G54D11*
X5897608Y755912D03*
G54D11*
X5838608Y838612D03*
G54D11*
X5787408Y881912D03*
G54D11*
X5748008Y917312D03*
G54D11*
Y976412D03*
G54D11*
X5728408Y1149612D03*
G54D11*
X5783508Y1157512D03*
G54D11*
X5661008Y631912D03*
G54D11*
X5586008Y673912D03*
G54D11*
X5523608Y653612D03*
G54D11*
Y444912D03*
G54D11*
X5433108D03*
G54D11*
X5681108Y488212D03*
G54D11*
X5161408Y480312D03*
G54D11*
X5165408Y661412D03*
G54D11*
X5193308Y976412D03*
G54D11*
X5178008Y1430912D03*
G54D11*
X5521008Y1592912D03*
G54D11*
X5972408Y1767712D03*
G54D11*
X6007908D03*
G54D11*
X5980308Y1807112D03*
G54D11*
X5944908Y1799212D03*
G54D11*
X6299208Y1842512D03*
G54D11*
Y1960612D03*
G54D11*
X6653508Y1881912D03*
G54D11*
X6712608Y1775612D03*
G54D11*
Y1606312D03*
G54D11*
X6840508D03*
G54D11*
X6614208Y1566912D03*
G54D11*
X6535408D03*
G54D11*
X6456708D03*
G54D11*
Y1488212D03*
G54D11*
X6334608Y1346512D03*
G54D11*
X6283508D03*
G54D11*
X6279508Y1275612D03*
G54D11*
X6334608Y1271712D03*
G54D11*
X6468508Y1208712D03*
G54D11*
X6755908Y1216612D03*
G54D11*
X6838608Y1232312D03*
G54D11*
X6791308Y1141812D03*
G54D11*
X6889808Y897712D03*
G54D11*
X6968508D03*
G54D11*
X7047208D03*
G54D11*
X7126008D03*
G54D11*
X7240208D03*
G54D11*
X7322808D03*
G54D11*
X7401608D03*
G54D11*
X7480308D03*
G54D11*
X7563008Y858312D03*
G54D11*
X7559108Y779512D03*
G54D11*
Y700812D03*
G54D11*
Y622112D03*
G54D11*
X7417308Y566912D03*
G54D11*
X7440908Y504012D03*
G54D11*
X7519708Y464612D03*
G54D11*
X7244108Y504012D03*
G54D11*
Y582712D03*
G54D11*
Y661412D03*
G54D11*
Y740212D03*
G54D11*
Y818912D03*
G54D11*
X7126008Y779512D03*
G54D11*
X7007908D03*
G54D11*
Y661412D03*
G54D11*
X7126008D03*
G54D11*
Y543312D03*
G54D11*
X7007908D03*
G54D11*
X6889808D03*
G54D11*
Y661412D03*
G54D11*
Y779512D03*
G54D11*
X6720508D03*
G54D11*
Y850412D03*
G54D11*
X6633908Y775612D03*
G54D11*
X6555108D03*
G54D11*
X6468508D03*
G54D11*
X6531508Y866212D03*
G54D11*
X6401608Y893712D03*
G54D11*
X6338608Y838612D03*
G54D11*
X6259808Y633912D03*
G54D11*
X7716508Y740212D03*
G54D11*
Y1015812D03*
G54D11*
Y1133912D03*
G54D11*
Y1252012D03*
G54D11*
Y1566912D03*
G54D11*
Y1661412D03*
G54D11*
Y1763812D03*
G54D11*
X7598408Y1724412D03*
G54D11*
Y1606312D03*
G54D11*
Y1842512D03*
G54D11*
X7551208Y1862212D03*
G54D11*
X7484308D03*
G54D11*
X7413408D03*
G54D11*
X7551208Y1929212D03*
G54D11*
X7090608Y1901612D03*
G54D11*
X7011808Y1850412D03*
G54D11*
X6940908Y1799212D03*
G54D11*
X7226508Y1657512D03*
G54D11*
X7460608Y1114212D03*
G54D11*
X7519708Y385812D03*
G54D11*
X7598408Y346512D03*
G54D11*
X7716508D03*
G54D11*
X7244108Y311012D03*
G54D11*
X7173208D03*
G54D11*
X7102408Y307112D03*
G54D11*
X7007908Y425212D03*
G54D11*
X6889808D03*
G54D11*
X6259808Y393712D03*
G54D11*
X5807108Y366212D03*
G54D11*
X5523608Y378012D03*
G54D11*
X5437008Y381912D03*
G54D11*
X5366108Y311012D03*
G54D12*
X7702808Y2315012D03*
G54D12*
Y2110312D03*
G54D12*
Y637812D03*
G54D12*
Y433112D03*
G54D13*
X5736208D03*
G54D13*
Y366212D03*
G54D14*
X6129908Y389812D03*
G54D14*
X5937808D03*
G54D15*
X6489808Y393712D03*
G54D15*
X6389808D03*
G54D16*
X4137808Y594512D03*
G54D16*
X7712608Y800412D03*
G54D16*
Y900412D03*
G54D16*
Y1324012D03*
G54D16*
Y1424012D03*
G54D16*
Y1847712D03*
G54D16*
Y1947712D03*
G54D16*
X4137808Y397712D03*
G54D17*
X5128908Y582712D03*
G54D17*
X4835608D03*
G54D18*
X4626008Y2318912D03*
G54D18*
Y2153612D03*
G54D18*
X4409508D03*
G54D18*
Y2318912D03*
G54D18*
Y1988212D03*
G54D18*
X4626008D03*
G54D18*
Y1736212D03*
G54D18*
Y1570912D03*
G54D18*
Y1405512D03*
G54D18*
Y1240212D03*
G54D18*
X4409508D03*
G54D18*
Y1405512D03*
G54D18*
Y1570912D03*
G54D18*
Y1736212D03*
G54D18*
Y984312D03*
G54D18*
Y818912D03*
G54D18*
X4626008D03*
G54D18*
Y984312D03*
G54D10*
X7795308Y4865312D03*
G54D10*
X7716508D03*
G54D10*
X7637808D03*
G54D10*
X7559108D03*
G54D10*
X7480308D03*
G54D10*
X7401608D03*
G54D10*
X7322808D03*
G54D10*
X7244108D03*
G54D10*
X7165408D03*
G54D10*
X7086608D03*
G54D10*
X7007908D03*
G54D10*
X6929108D03*
G54D10*
X6850408D03*
G54D10*
X6771708D03*
G54D10*
X6692908D03*
G54D10*
X6614208D03*
G54D10*
X6535408D03*
G54D10*
X6456708D03*
G54D10*
X6378008D03*
G54D10*
X6299208D03*
G54D10*
X6220508D03*
G54D10*
X6141708D03*
G54D10*
X6063008D03*
G54D10*
X5984308D03*
G54D10*
X5905508D03*
G54D10*
X5826808D03*
G54D10*
X5748008D03*
G54D10*
X5669308D03*
G54D10*
X5590608D03*
G54D10*
X5511808D03*
G54D10*
X5433108D03*
G54D10*
X5354308D03*
G54D10*
X5275608D03*
G54D10*
X5196908D03*
G54D10*
X5118108D03*
G54D10*
X5039408D03*
G54D10*
X4960608D03*
G54D10*
X4881908D03*
G54D10*
X4803208D03*
G54D10*
X4724408D03*
G54D10*
X4728908Y4631712D03*
G54D10*
X4783908D03*
G54D10*
X4830908Y4630612D03*
G54D10*
X4887908Y4607612D03*
G54D10*
X5330908Y4461612D03*
G54D10*
X4645708Y4865312D03*
G54D10*
X4566908D03*
G54D10*
X4488208D03*
G54D10*
X4409508D03*
G54D10*
X4330708D03*
G54D10*
X4252008D03*
G54D10*
X4173208D03*
G54D10*
X4094508D03*
G54D10*
X4015808D03*
G54D10*
X4098408Y3440912D03*
G54D10*
Y3405512D03*
G54D10*
Y3366112D03*
G54D10*
X4519808Y3001512D03*
G54D10*
X4555908Y2932012D03*
G54D10*
X4563008Y2814912D03*
G54D10*
X4641708Y2826812D03*
G54D10*
X4661408Y2905512D03*
G54D10*
X4748008Y2897612D03*
G54D10*
X4779508Y2834612D03*
G54D10*
X4704708Y2807112D03*
G54D10*
X5135008Y3186212D03*
G54D10*
X5356008Y3201212D03*
G54D10*
X5410708D03*
G54D10*
X5436008Y3169212D03*
G54D10*
X5384008Y3170212D03*
G54D10*
X5494008Y3167212D03*
G54D10*
X5520008Y3201212D03*
G54D10*
X5826808Y3279512D03*
G54D10*
X5893708Y3283512D03*
G54D10*
X5940908D03*
G54D10*
X5913408Y3330712D03*
G54D10*
X5992108D03*
G54D10*
X6023608Y3271612D03*
G54D10*
X6208708Y2791312D03*
G54D10*
X5574008Y3783212D03*
G54D10*
Y3840212D03*
G54D10*
X5523008Y3840312D03*
G54D10*
Y3894712D03*
G54D10*
X5574008Y3897212D03*
G54D10*
X5524208Y4172512D03*
G54D10*
X5490908Y4305612D03*
G54D10*
X5436708Y4301312D03*
G54D10*
X5398908Y4298612D03*
G54D10*
X5361908D03*
G54D10*
X5393908Y4259712D03*
G54D10*
X5218608Y3996512D03*
G54D10*
X5220008Y3933212D03*
G54D10*
X5152508D03*
G54D10*
X5151108Y3996512D03*
G54D10*
X5083608D03*
G54D10*
X5085008Y3933212D03*
G54D10*
X6261808Y2791312D03*
G54D10*
X6315008D03*
G54D10*
Y2746112D03*
G54D10*
X6299208Y2590512D03*
G54D10*
X6378008D03*
G54D10*
X6456708D03*
G54D10*
X6535408D03*
G54D10*
X6614208D03*
G54D10*
X6692908D03*
G54D10*
X6771708D03*
G54D10*
X6850408D03*
G54D10*
X6929108D03*
G54D10*
X7007908D03*
G54D10*
X7086608D03*
G54D10*
X7165408D03*
G54D10*
X7244108D03*
G54D10*
X7322808D03*
G54D10*
X7401608D03*
G54D10*
X7480308D03*
G54D10*
X7559108D03*
G54D10*
X7637808D03*
G54D10*
X7716508D03*
G54D10*
X7795308D03*
G54D10*
X6220508D03*
G54D10*
X6141708D03*
G54D10*
X6063008D03*
G54D10*
X5984308D03*
G54D10*
X5905508D03*
G54D10*
X5826808D03*
G54D10*
X5748008D03*
G54D10*
X5669308D03*
G54D10*
X5590608D03*
G54D10*
X5511808D03*
G54D10*
X5433108D03*
G54D10*
X5354308D03*
G54D10*
X5275608D03*
G54D10*
X5196908D03*
G54D10*
X5118108D03*
G54D10*
X5039408D03*
G54D10*
X4960608D03*
G54D10*
X4881908D03*
G54D10*
X4803208D03*
G54D10*
X4724408D03*
G54D10*
X6208708Y2746112D03*
G54D10*
X4645708Y2590512D03*
G54D10*
X4566908D03*
G54D10*
X4488208D03*
G54D10*
X4409508D03*
G54D10*
X4330708D03*
G54D10*
X4252008D03*
G54D10*
X4173208D03*
G54D10*
X4094508D03*
G54D10*
X4015808D03*
G54D11*
X7677208Y4748012D03*
G54D11*
X7551208Y4704712D03*
G54D11*
Y4641712D03*
G54D11*
X7480308D03*
G54D11*
Y4708712D03*
G54D11*
Y4771612D03*
G54D11*
X7409508Y4704712D03*
G54D11*
Y4586612D03*
G54D11*
Y4511812D03*
G54D11*
Y4429112D03*
G54D11*
Y4354312D03*
G54D11*
X7551208D03*
G54D11*
X7598408D03*
G54D11*
X7551208Y4421212D03*
G54D11*
Y4496112D03*
G54D11*
X7225408Y4540412D03*
G54D11*
X7094508Y4574812D03*
G54D11*
Y4492112D03*
G54D11*
Y4393712D03*
G54D11*
X7007908Y4354312D03*
G54D11*
X7055108Y4622012D03*
G54D11*
X6968508Y4629912D03*
G54D11*
X6858308Y4641812D03*
G54D11*
X6818908Y4535412D03*
G54D11*
X6653508Y4590512D03*
G54D11*
X6614208Y4669312D03*
G54D11*
X6732308D03*
G54D11*
X6496108D03*
G54D11*
Y4551212D03*
G54D11*
Y4433112D03*
G54D11*
X6574808Y4511812D03*
G54D11*
X6299208Y4551212D03*
G54D11*
X6259808Y4511812D03*
G54D11*
X6299208Y4433112D03*
G54D11*
Y4669312D03*
G54D11*
Y4748012D03*
G54D11*
X6385808Y4759812D03*
G54D11*
Y4681112D03*
G54D11*
X7226508Y4718612D03*
G54D11*
X6161408Y4744112D03*
G54D11*
X6110208D03*
G54D11*
X6059108D03*
G54D11*
X6007908D03*
G54D11*
Y4694912D03*
G54D11*
X6059108Y4692912D03*
G54D11*
Y4641712D03*
G54D11*
X6007908D03*
G54D11*
X6110208D03*
G54D11*
Y4692912D03*
G54D11*
X6161408D03*
G54D11*
Y4641712D03*
G54D11*
X6141708Y4511812D03*
G54D11*
X6023608D03*
G54D11*
X5901608Y4496112D03*
G54D11*
X5868108Y4529512D03*
G54D11*
X5629908Y4629912D03*
G54D11*
X5590608Y4708712D03*
G54D11*
X5669308D03*
G54D11*
X5629908Y4748012D03*
G54D11*
X4287408Y4692912D03*
G54D11*
Y4633812D03*
G54D11*
X4283508Y4440912D03*
G54D11*
X4078708Y4421212D03*
G54D11*
Y4515712D03*
G54D11*
Y4618112D03*
G54D11*
X4129908Y4685012D03*
G54D11*
X4515808Y4425212D03*
G54D11*
X4462008Y4258512D03*
G54D11*
X4291308Y4047212D03*
G54D11*
X4129908Y4078712D03*
G54D11*
X4094508Y3964612D03*
G54D11*
X4086608Y4220512D03*
G54D11*
X4078708Y4318912D03*
G54D11*
X4098408Y3307112D03*
G54D11*
X4933108Y3248012D03*
G54D11*
X5094508D03*
G54D11*
X5090608Y3169312D03*
G54D11*
X5177208Y3173212D03*
G54D11*
X5263808Y3161412D03*
G54D11*
X5463408Y3199212D03*
G54D11*
X5515808Y3362212D03*
G54D11*
X5531508Y3425212D03*
G54D11*
X5484308Y3484212D03*
G54D11*
X5507908Y3523612D03*
G54D11*
X5582708Y3570912D03*
G54D11*
X5608308Y3718512D03*
G54D11*
X5669308Y3881912D03*
G54D11*
X5728408D03*
G54D11*
X5787408D03*
G54D11*
X5846508D03*
G54D11*
X6094508Y3874012D03*
G54D11*
X6157508D03*
G54D11*
X6220508Y3704712D03*
G54D11*
X6003908Y3712612D03*
G54D11*
X6023608Y3535412D03*
G54D11*
X5950208Y3527512D03*
G54D11*
X5925208Y3484212D03*
G54D11*
X6063008Y3488212D03*
G54D11*
X6066908Y3196812D03*
G54D11*
X5984308Y3149612D03*
G54D11*
X5897608Y3110212D03*
G54D11*
X5838608Y3192912D03*
G54D11*
X5787408Y3236212D03*
G54D11*
X5748008Y3271612D03*
G54D11*
Y3330712D03*
G54D11*
X5728408Y3503912D03*
G54D11*
X5783508Y3511812D03*
G54D11*
X5661008Y2986212D03*
G54D11*
X5586008Y3028212D03*
G54D11*
X5523608Y3007912D03*
G54D11*
Y2799212D03*
G54D11*
X5433108D03*
G54D11*
X5681108Y2842512D03*
G54D11*
X5161408Y2834612D03*
G54D11*
X5165408Y3015712D03*
G54D11*
X5193308Y3330712D03*
G54D11*
X5178008Y3785212D03*
G54D11*
X5521008Y3947212D03*
G54D11*
X5972408Y4122012D03*
G54D11*
X6007908D03*
G54D11*
X5980308Y4161412D03*
G54D11*
X5944908Y4153512D03*
G54D11*
X6299208Y4196812D03*
G54D11*
Y4314912D03*
G54D11*
X6653508Y4236212D03*
G54D11*
X6712608Y4129912D03*
G54D11*
Y3960612D03*
G54D11*
X6840508D03*
G54D11*
X6614208Y3921212D03*
G54D11*
X6535408D03*
G54D11*
X6456708D03*
G54D11*
Y3842512D03*
G54D11*
X6334608Y3700812D03*
G54D11*
X6283508D03*
G54D11*
X6279508Y3629912D03*
G54D11*
X6334608Y3626012D03*
G54D11*
X6468508Y3563012D03*
G54D11*
X6755908Y3570912D03*
G54D11*
X6838608Y3586612D03*
G54D11*
X6791308Y3496112D03*
G54D11*
X6889808Y3252012D03*
G54D11*
X6968508D03*
G54D11*
X7047208D03*
G54D11*
X7126008D03*
G54D11*
X7240208D03*
G54D11*
X7322808D03*
G54D11*
X7401608D03*
G54D11*
X7480308D03*
G54D11*
X7563008Y3212612D03*
G54D11*
X7559108Y3133812D03*
G54D11*
Y3055112D03*
G54D11*
Y2976412D03*
G54D11*
X7417308Y2921212D03*
G54D11*
X7440908Y2858312D03*
G54D11*
X7519708Y2818912D03*
G54D11*
X7244108Y2858312D03*
G54D11*
Y2937012D03*
G54D11*
Y3015712D03*
G54D11*
Y3094512D03*
G54D11*
Y3173212D03*
G54D11*
X7126008Y3133812D03*
G54D11*
X7007908D03*
G54D11*
Y3015712D03*
G54D11*
X7126008D03*
G54D11*
Y2897612D03*
G54D11*
X7007908D03*
G54D11*
X6889808D03*
G54D11*
Y3015712D03*
G54D11*
Y3133812D03*
G54D11*
X6720508D03*
G54D11*
Y3204712D03*
G54D11*
X6633908Y3129912D03*
G54D11*
X6555108D03*
G54D11*
X6468508D03*
G54D11*
X6531508Y3220512D03*
G54D11*
X6401608Y3248012D03*
G54D11*
X6338608Y3192912D03*
G54D11*
X6259808Y2988212D03*
G54D11*
X7716508Y3094512D03*
G54D11*
Y3370112D03*
G54D11*
Y3488212D03*
G54D11*
Y3606312D03*
G54D11*
Y3921212D03*
G54D11*
Y4015712D03*
G54D11*
Y4118112D03*
G54D11*
X7598408Y4078712D03*
G54D11*
Y3960612D03*
G54D11*
Y4196812D03*
G54D11*
X7551208Y4216512D03*
G54D11*
X7484308D03*
G54D11*
X7413408D03*
G54D11*
X7551208Y4283512D03*
G54D11*
X7090608Y4255912D03*
G54D11*
X7011808Y4204712D03*
G54D11*
X6940908Y4153512D03*
G54D11*
X7226508Y4011812D03*
G54D11*
X7460608Y3468512D03*
G54D11*
X7519708Y2740112D03*
G54D11*
X7598408Y2700812D03*
G54D11*
X7716508D03*
G54D11*
X7244108Y2665312D03*
G54D11*
X7173208D03*
G54D11*
X7102408Y2661412D03*
G54D11*
X7007908Y2779512D03*
G54D11*
X6889808D03*
G54D11*
X6259808Y2748012D03*
G54D11*
X5807108Y2720512D03*
G54D11*
X5523608Y2732312D03*
G54D11*
X5437008Y2736212D03*
G54D11*
X5366108Y2665312D03*
G54D12*
X7702808Y4669312D03*
G54D12*
Y4464612D03*
G54D12*
Y2992112D03*
G54D12*
Y2787412D03*
G54D13*
X5736208D03*
G54D13*
Y2720512D03*
G54D14*
X6129908Y2744112D03*
G54D14*
X5937808D03*
G54D15*
X6489808Y2748012D03*
G54D15*
X6389808D03*
G54D16*
X4137808Y2948812D03*
G54D16*
X7712608Y3154712D03*
G54D16*
Y3254712D03*
G54D16*
Y3678312D03*
G54D16*
Y3778312D03*
G54D16*
Y4202012D03*
G54D16*
Y4302012D03*
G54D16*
X4137808Y2752012D03*
G54D17*
X5128908Y2937012D03*
G54D17*
X4835608D03*
G54D18*
X4626008Y4673212D03*
G54D18*
Y4507912D03*
G54D18*
X4409508D03*
G54D18*
Y4673212D03*
G54D18*
Y4342512D03*
G54D18*
X4626008D03*
G54D18*
Y4090512D03*
G54D18*
Y3925212D03*
G54D18*
Y3759812D03*
G54D18*
Y3594512D03*
G54D18*
X4409508D03*
G54D18*
Y3759812D03*
G54D18*
Y3925212D03*
G54D18*
Y4090512D03*
G54D18*
Y3338612D03*
G54D18*
Y3173212D03*
G54D18*
X4626008D03*
G54D18*
Y3338612D03*
G54D10*
X7795308Y7219612D03*
G54D10*
X7716508D03*
G54D10*
X7637808D03*
G54D10*
X7559108D03*
G54D10*
X7480308D03*
G54D10*
X7401608D03*
G54D10*
X7322808D03*
G54D10*
X7244108D03*
G54D10*
X7165408D03*
G54D10*
X7086608D03*
G54D10*
X7007908D03*
G54D10*
X6929108D03*
G54D10*
X6850408D03*
G54D10*
X6771708D03*
G54D10*
X6692908D03*
G54D10*
X6614208D03*
G54D10*
X6535408D03*
G54D10*
X6456708D03*
G54D10*
X6378008D03*
G54D10*
X6299208D03*
G54D10*
X6220508D03*
G54D10*
X6141708D03*
G54D10*
X6063008D03*
G54D10*
X5984308D03*
G54D10*
X5905508D03*
G54D10*
X5826808D03*
G54D10*
X5748008D03*
G54D10*
X5669308D03*
G54D10*
X5590608D03*
G54D10*
X5511808D03*
G54D10*
X5433108D03*
G54D10*
X5354308D03*
G54D10*
X5275608D03*
G54D10*
X5196908D03*
G54D10*
X5118108D03*
G54D10*
X5039408D03*
G54D10*
X4960608D03*
G54D10*
X4881908D03*
G54D10*
X4803208D03*
G54D10*
X4724408D03*
G54D10*
X4728908Y6986012D03*
G54D10*
X4783908D03*
G54D10*
X4830908Y6984912D03*
G54D10*
X4887908Y6961912D03*
G54D10*
X5330908Y6815912D03*
G54D10*
X4645708Y7219612D03*
G54D10*
X4566908D03*
G54D10*
X4488208D03*
G54D10*
X4409508D03*
G54D10*
X4330708D03*
G54D10*
X4252008D03*
G54D10*
X4173208D03*
G54D10*
X4094508D03*
G54D10*
X4015808D03*
G54D10*
X4098408Y5795212D03*
G54D10*
Y5759812D03*
G54D10*
Y5720412D03*
G54D10*
X4519808Y5355812D03*
G54D10*
X4555908Y5286312D03*
G54D10*
X4563008Y5169212D03*
G54D10*
X4641708Y5181112D03*
G54D10*
X4661408Y5259812D03*
G54D10*
X4748008Y5251912D03*
G54D10*
X4779508Y5188912D03*
G54D10*
X4704708Y5161412D03*
G54D10*
X5135008Y5540512D03*
G54D10*
X5356008Y5555512D03*
G54D10*
X5410708D03*
G54D10*
X5436008Y5523512D03*
G54D10*
X5384008Y5524512D03*
G54D10*
X5494008Y5521512D03*
G54D10*
X5520008Y5555512D03*
G54D10*
X5826808Y5633812D03*
G54D10*
X5893708Y5637812D03*
G54D10*
X5940908D03*
G54D10*
X5913408Y5685012D03*
G54D10*
X5992108D03*
G54D10*
X6023608Y5625912D03*
G54D10*
X6208708Y5145612D03*
G54D10*
X5574008Y6137512D03*
G54D10*
Y6194512D03*
G54D10*
X5523008Y6194612D03*
G54D10*
Y6249012D03*
G54D10*
X5574008Y6251512D03*
G54D10*
X5524208Y6526812D03*
G54D10*
X5490908Y6659912D03*
G54D10*
X5436708Y6655612D03*
G54D10*
X5398908Y6652912D03*
G54D10*
X5361908D03*
G54D10*
X5393908Y6614012D03*
G54D10*
X5218608Y6350812D03*
G54D10*
X5220008Y6287512D03*
G54D10*
X5152508D03*
G54D10*
X5151108Y6350812D03*
G54D10*
X5083608D03*
G54D10*
X5085008Y6287512D03*
G54D10*
X6261808Y5145612D03*
G54D10*
X6315008D03*
G54D10*
Y5100412D03*
G54D10*
X6299208Y4944812D03*
G54D10*
X6378008D03*
G54D10*
X6456708D03*
G54D10*
X6535408D03*
G54D10*
X6614208D03*
G54D10*
X6692908D03*
G54D10*
X6771708D03*
G54D10*
X6850408D03*
G54D10*
X6929108D03*
G54D10*
X7007908D03*
G54D10*
X7086608D03*
G54D10*
X7165408D03*
G54D10*
X7244108D03*
G54D10*
X7322808D03*
G54D10*
X7401608D03*
G54D10*
X7480308D03*
G54D10*
X7559108D03*
G54D10*
X7637808D03*
G54D10*
X7716508D03*
G54D10*
X7795308D03*
G54D10*
X6220508D03*
G54D10*
X6141708D03*
G54D10*
X6063008D03*
G54D10*
X5984308D03*
G54D10*
X5905508D03*
G54D10*
X5826808D03*
G54D10*
X5748008D03*
G54D10*
X5669308D03*
G54D10*
X5590608D03*
G54D10*
X5511808D03*
G54D10*
X5433108D03*
G54D10*
X5354308D03*
G54D10*
X5275608D03*
G54D10*
X5196908D03*
G54D10*
X5118108D03*
G54D10*
X5039408D03*
G54D10*
X4960608D03*
G54D10*
X4881908D03*
G54D10*
X4803208D03*
G54D10*
X4724408D03*
G54D10*
X6208708Y5100412D03*
G54D10*
X4645708Y4944812D03*
G54D10*
X4566908D03*
G54D10*
X4488208D03*
G54D10*
X4409508D03*
G54D10*
X4330708D03*
G54D10*
X4252008D03*
G54D10*
X4173208D03*
G54D10*
X4094508D03*
G54D10*
X4015808D03*
G54D11*
X7677208Y7102312D03*
G54D11*
X7551208Y7059012D03*
G54D11*
Y6996012D03*
G54D11*
X7480308D03*
G54D11*
Y7063012D03*
G54D11*
Y7125912D03*
G54D11*
X7409508Y7059012D03*
G54D11*
Y6940912D03*
G54D11*
Y6866112D03*
G54D11*
Y6783412D03*
G54D11*
Y6708612D03*
G54D11*
X7551208D03*
G54D11*
X7598408D03*
G54D11*
X7551208Y6775512D03*
G54D11*
Y6850412D03*
G54D11*
X7225408Y6894712D03*
G54D11*
X7094508Y6929112D03*
G54D11*
Y6846412D03*
G54D11*
Y6748012D03*
G54D11*
X7007908Y6708612D03*
G54D11*
X7055108Y6976312D03*
G54D11*
X6968508Y6984212D03*
G54D11*
X6858308Y6996112D03*
G54D11*
X6818908Y6889712D03*
G54D11*
X6653508Y6944812D03*
G54D11*
X6614208Y7023612D03*
G54D11*
X6732308D03*
G54D11*
X6496108D03*
G54D11*
Y6905512D03*
G54D11*
Y6787412D03*
G54D11*
X6574808Y6866112D03*
G54D11*
X6299208Y6905512D03*
G54D11*
X6259808Y6866112D03*
G54D11*
X6299208Y6787412D03*
G54D11*
Y7023612D03*
G54D11*
Y7102312D03*
G54D11*
X6385808Y7114112D03*
G54D11*
Y7035412D03*
G54D11*
X7226508Y7072912D03*
G54D11*
X6161408Y7098412D03*
G54D11*
X6110208D03*
G54D11*
X6059108D03*
G54D11*
X6007908D03*
G54D11*
Y7049212D03*
G54D11*
X6059108Y7047212D03*
G54D11*
Y6996012D03*
G54D11*
X6007908D03*
G54D11*
X6110208D03*
G54D11*
Y7047212D03*
G54D11*
X6161408D03*
G54D11*
Y6996012D03*
G54D11*
X6141708Y6866112D03*
G54D11*
X6023608D03*
G54D11*
X5901608Y6850412D03*
G54D11*
X5868108Y6883812D03*
G54D11*
X5629908Y6984212D03*
G54D11*
X5590608Y7063012D03*
G54D11*
X5669308D03*
G54D11*
X5629908Y7102312D03*
G54D11*
X4287408Y7047212D03*
G54D11*
Y6988112D03*
G54D11*
X4283508Y6795212D03*
G54D11*
X4078708Y6775512D03*
G54D11*
Y6870012D03*
G54D11*
Y6972412D03*
G54D11*
X4129908Y7039312D03*
G54D11*
X4515808Y6779512D03*
G54D11*
X4462008Y6612812D03*
G54D11*
X4291308Y6401512D03*
G54D11*
X4129908Y6433012D03*
G54D11*
X4094508Y6318912D03*
G54D11*
X4086608Y6574812D03*
G54D11*
X4078708Y6673212D03*
G54D11*
X4098408Y5661412D03*
G54D11*
X4933108Y5602312D03*
G54D11*
X5094508D03*
G54D11*
X5090608Y5523612D03*
G54D11*
X5177208Y5527512D03*
G54D11*
X5263808Y5515712D03*
G54D11*
X5463408Y5553512D03*
G54D11*
X5515808Y5716512D03*
G54D11*
X5531508Y5779512D03*
G54D11*
X5484308Y5838512D03*
G54D11*
X5507908Y5877912D03*
G54D11*
X5582708Y5925212D03*
G54D11*
X5608308Y6072812D03*
G54D11*
X5669308Y6236212D03*
G54D11*
X5728408D03*
G54D11*
X5787408D03*
G54D11*
X5846508D03*
G54D11*
X6094508Y6228312D03*
G54D11*
X6157508D03*
G54D11*
X6220508Y6059012D03*
G54D11*
X6003908Y6066912D03*
G54D11*
X6023608Y5889712D03*
G54D11*
X5950208Y5881812D03*
G54D11*
X5925208Y5838512D03*
G54D11*
X6063008Y5842512D03*
G54D11*
X6066908Y5551112D03*
G54D11*
X5984308Y5503912D03*
G54D11*
X5897608Y5464512D03*
G54D11*
X5838608Y5547212D03*
G54D11*
X5787408Y5590512D03*
G54D11*
X5748008Y5625912D03*
G54D11*
Y5685012D03*
G54D11*
X5728408Y5858212D03*
G54D11*
X5783508Y5866112D03*
G54D11*
X5661008Y5340512D03*
G54D11*
X5586008Y5382512D03*
G54D11*
X5523608Y5362212D03*
G54D11*
Y5153512D03*
G54D11*
X5433108D03*
G54D11*
X5681108Y5196812D03*
G54D11*
X5161408Y5188912D03*
G54D11*
X5165408Y5370012D03*
G54D11*
X5193308Y5685012D03*
G54D11*
X5178008Y6139512D03*
G54D11*
X5521008Y6301512D03*
G54D11*
X5972408Y6476312D03*
G54D11*
X6007908D03*
G54D11*
X5980308Y6515712D03*
G54D11*
X5944908Y6507812D03*
G54D11*
X6299208Y6551112D03*
G54D11*
Y6669212D03*
G54D11*
X6653508Y6590512D03*
G54D11*
X6712608Y6484212D03*
G54D11*
Y6314912D03*
G54D11*
X6840508D03*
G54D11*
X6614208Y6275512D03*
G54D11*
X6535408D03*
G54D11*
X6456708D03*
G54D11*
Y6196812D03*
G54D11*
X6334608Y6055112D03*
G54D11*
X6283508D03*
G54D11*
X6279508Y5984212D03*
G54D11*
X6334608Y5980312D03*
G54D11*
X6468508Y5917312D03*
G54D11*
X6755908Y5925212D03*
G54D11*
X6838608Y5940912D03*
G54D11*
X6791308Y5850412D03*
G54D11*
X6889808Y5606312D03*
G54D11*
X6968508D03*
G54D11*
X7047208D03*
G54D11*
X7126008D03*
G54D11*
X7240208D03*
G54D11*
X7322808D03*
G54D11*
X7401608D03*
G54D11*
X7480308D03*
G54D11*
X7563008Y5566912D03*
G54D11*
X7559108Y5488112D03*
G54D11*
Y5409412D03*
G54D11*
Y5330712D03*
G54D11*
X7417308Y5275512D03*
G54D11*
X7440908Y5212612D03*
G54D11*
X7519708Y5173212D03*
G54D11*
X7244108Y5212612D03*
G54D11*
Y5291312D03*
G54D11*
Y5370012D03*
G54D11*
Y5448812D03*
G54D11*
Y5527512D03*
G54D11*
X7126008Y5488112D03*
G54D11*
X7007908D03*
G54D11*
Y5370012D03*
G54D11*
X7126008D03*
G54D11*
Y5251912D03*
G54D11*
X7007908D03*
G54D11*
X6889808D03*
G54D11*
Y5370012D03*
G54D11*
Y5488112D03*
G54D11*
X6720508D03*
G54D11*
Y5559012D03*
G54D11*
X6633908Y5484212D03*
G54D11*
X6555108D03*
G54D11*
X6468508D03*
G54D11*
X6531508Y5574812D03*
G54D11*
X6401608Y5602312D03*
G54D11*
X6338608Y5547212D03*
G54D11*
X6259808Y5342512D03*
G54D11*
X7716508Y5448812D03*
G54D11*
Y5724412D03*
G54D11*
Y5842512D03*
G54D11*
Y5960612D03*
G54D11*
Y6275512D03*
G54D11*
Y6370012D03*
G54D11*
Y6472412D03*
G54D11*
X7598408Y6433012D03*
G54D11*
Y6314912D03*
G54D11*
Y6551112D03*
G54D11*
X7551208Y6570812D03*
G54D11*
X7484308D03*
G54D11*
X7413408D03*
G54D11*
X7551208Y6637812D03*
G54D11*
X7090608Y6610212D03*
G54D11*
X7011808Y6559012D03*
G54D11*
X6940908Y6507812D03*
G54D11*
X7226508Y6366112D03*
G54D11*
X7460608Y5822812D03*
G54D11*
X7519708Y5094412D03*
G54D11*
X7598408Y5055112D03*
G54D11*
X7716508D03*
G54D11*
X7244108Y5019612D03*
G54D11*
X7173208D03*
G54D11*
X7102408Y5015712D03*
G54D11*
X7007908Y5133812D03*
G54D11*
X6889808D03*
G54D11*
X6259808Y5102312D03*
G54D11*
X5807108Y5074812D03*
G54D11*
X5523608Y5086612D03*
G54D11*
X5437008Y5090512D03*
G54D11*
X5366108Y5019612D03*
G54D12*
X7702808Y7023612D03*
G54D12*
Y6818912D03*
G54D12*
Y5346412D03*
G54D12*
Y5141712D03*
G54D13*
X5736208D03*
G54D13*
Y5074812D03*
G54D14*
X6129908Y5098412D03*
G54D14*
X5937808D03*
G54D15*
X6489808Y5102312D03*
G54D15*
X6389808D03*
G54D16*
X4137808Y5303112D03*
G54D16*
X7712608Y5509012D03*
G54D16*
Y5609012D03*
G54D16*
Y6032612D03*
G54D16*
Y6132612D03*
G54D16*
Y6556312D03*
G54D16*
Y6656312D03*
G54D16*
X4137808Y5106312D03*
G54D17*
X5128908Y5291312D03*
G54D17*
X4835608D03*
G54D18*
X4626008Y7027512D03*
G54D18*
Y6862212D03*
G54D18*
X4409508D03*
G54D18*
Y7027512D03*
G54D18*
Y6696812D03*
G54D18*
X4626008D03*
G54D18*
Y6444812D03*
G54D18*
Y6279512D03*
G54D18*
Y6114112D03*
G54D18*
Y5948812D03*
G54D18*
X4409508D03*
G54D18*
Y6114112D03*
G54D18*
Y6279512D03*
G54D18*
Y6444812D03*
G54D18*
Y5692912D03*
G54D18*
Y5527512D03*
G54D18*
X4626008D03*
G54D18*
Y5692912D03*
G54D10*
X7795308Y9573912D03*
G54D10*
X7716508D03*
G54D10*
X7637808D03*
G54D10*
X7559108D03*
G54D10*
X7480308D03*
G54D10*
X7401608D03*
G54D10*
X7322808D03*
G54D10*
X7244108D03*
G54D10*
X7165408D03*
G54D10*
X7086608D03*
G54D10*
X7007908D03*
G54D10*
X6929108D03*
G54D10*
X6850408D03*
G54D10*
X6771708D03*
G54D10*
X6692908D03*
G54D10*
X6614208D03*
G54D10*
X6535408D03*
G54D10*
X6456708D03*
G54D10*
X6378008D03*
G54D10*
X6299208D03*
G54D10*
X6220508D03*
G54D10*
X6141708D03*
G54D10*
X6063008D03*
G54D10*
X5984308D03*
G54D10*
X5905508D03*
G54D10*
X5826808D03*
G54D10*
X5748008D03*
G54D10*
X5669308D03*
G54D10*
X5590608D03*
G54D10*
X5511808D03*
G54D10*
X5433108D03*
G54D10*
X5354308D03*
G54D10*
X5275608D03*
G54D10*
X5196908D03*
G54D10*
X5118108D03*
G54D10*
X5039408D03*
G54D10*
X4960608D03*
G54D10*
X4881908D03*
G54D10*
X4803208D03*
G54D10*
X4724408D03*
G54D10*
X4728908Y9340312D03*
G54D10*
X4783908D03*
G54D10*
X4830908Y9339212D03*
G54D10*
X4887908Y9316212D03*
G54D10*
X5330908Y9170212D03*
G54D10*
X4645708Y9573912D03*
G54D10*
X4566908D03*
G54D10*
X4488208D03*
G54D10*
X4409508D03*
G54D10*
X4330708D03*
G54D10*
X4252008D03*
G54D10*
X4173208D03*
G54D10*
X4094508D03*
G54D10*
X4015808D03*
G54D10*
X4098408Y8149512D03*
G54D10*
Y8114112D03*
G54D10*
Y8074712D03*
G54D10*
X4519808Y7710112D03*
G54D10*
X4555908Y7640612D03*
G54D10*
X4563008Y7523512D03*
G54D10*
X4641708Y7535412D03*
G54D10*
X4661408Y7614112D03*
G54D10*
X4748008Y7606212D03*
G54D10*
X4779508Y7543212D03*
G54D10*
X4704708Y7515712D03*
G54D10*
X5135008Y7894812D03*
G54D10*
X5356008Y7909812D03*
G54D10*
X5410708D03*
G54D10*
X5436008Y7877812D03*
G54D10*
X5384008Y7878812D03*
G54D10*
X5494008Y7875812D03*
G54D10*
X5520008Y7909812D03*
G54D10*
X5826808Y7988112D03*
G54D10*
X5893708Y7992112D03*
G54D10*
X5940908D03*
G54D10*
X5913408Y8039312D03*
G54D10*
X5992108D03*
G54D10*
X6023608Y7980212D03*
G54D10*
X6208708Y7499912D03*
G54D10*
X5574008Y8491812D03*
G54D10*
Y8548812D03*
G54D10*
X5523008Y8548912D03*
G54D10*
Y8603312D03*
G54D10*
X5574008Y8605812D03*
G54D10*
X5524208Y8881112D03*
G54D10*
X5490908Y9014212D03*
G54D10*
X5436708Y9009912D03*
G54D10*
X5398908Y9007212D03*
G54D10*
X5361908D03*
G54D10*
X5393908Y8968312D03*
G54D10*
X5218608Y8705112D03*
G54D10*
X5220008Y8641812D03*
G54D10*
X5152508D03*
G54D10*
X5151108Y8705112D03*
G54D10*
X5083608D03*
G54D10*
X5085008Y8641812D03*
G54D10*
X6261808Y7499912D03*
G54D10*
X6315008D03*
G54D10*
Y7454712D03*
G54D10*
X6299208Y7299112D03*
G54D10*
X6378008D03*
G54D10*
X6456708D03*
G54D10*
X6535408D03*
G54D10*
X6614208D03*
G54D10*
X6692908D03*
G54D10*
X6771708D03*
G54D10*
X6850408D03*
G54D10*
X6929108D03*
G54D10*
X7007908D03*
G54D10*
X7086608D03*
G54D10*
X7165408D03*
G54D10*
X7244108D03*
G54D10*
X7322808D03*
G54D10*
X7401608D03*
G54D10*
X7480308D03*
G54D10*
X7559108D03*
G54D10*
X7637808D03*
G54D10*
X7716508D03*
G54D10*
X7795308D03*
G54D10*
X6220508D03*
G54D10*
X6141708D03*
G54D10*
X6063008D03*
G54D10*
X5984308D03*
G54D10*
X5905508D03*
G54D10*
X5826808D03*
G54D10*
X5748008D03*
G54D10*
X5669308D03*
G54D10*
X5590608D03*
G54D10*
X5511808D03*
G54D10*
X5433108D03*
G54D10*
X5354308D03*
G54D10*
X5275608D03*
G54D10*
X5196908D03*
G54D10*
X5118108D03*
G54D10*
X5039408D03*
G54D10*
X4960608D03*
G54D10*
X4881908D03*
G54D10*
X4803208D03*
G54D10*
X4724408D03*
G54D10*
X6208708Y7454712D03*
G54D10*
X4645708Y7299112D03*
G54D10*
X4566908D03*
G54D10*
X4488208D03*
G54D10*
X4409508D03*
G54D10*
X4330708D03*
G54D10*
X4252008D03*
G54D10*
X4173208D03*
G54D10*
X4094508D03*
G54D10*
X4015808D03*
G54D11*
X7677208Y9456612D03*
G54D11*
X7551208Y9413312D03*
G54D11*
Y9350312D03*
G54D11*
X7480308D03*
G54D11*
Y9417312D03*
G54D11*
Y9480212D03*
G54D11*
X7409508Y9413312D03*
G54D11*
Y9295212D03*
G54D11*
Y9220412D03*
G54D11*
Y9137712D03*
G54D11*
Y9062912D03*
G54D11*
X7551208D03*
G54D11*
X7598408D03*
G54D11*
X7551208Y9129812D03*
G54D11*
Y9204712D03*
G54D11*
X7225408Y9249012D03*
G54D11*
X7094508Y9283412D03*
G54D11*
Y9200712D03*
G54D11*
Y9102312D03*
G54D11*
X7007908Y9062912D03*
G54D11*
X7055108Y9330612D03*
G54D11*
X6968508Y9338512D03*
G54D11*
X6858308Y9350412D03*
G54D11*
X6818908Y9244012D03*
G54D11*
X6653508Y9299112D03*
G54D11*
X6614208Y9377912D03*
G54D11*
X6732308D03*
G54D11*
X6496108D03*
G54D11*
Y9259812D03*
G54D11*
Y9141712D03*
G54D11*
X6574808Y9220412D03*
G54D11*
X6299208Y9259812D03*
G54D11*
X6259808Y9220412D03*
G54D11*
X6299208Y9141712D03*
G54D11*
Y9377912D03*
G54D11*
Y9456612D03*
G54D11*
X6385808Y9468412D03*
G54D11*
Y9389712D03*
G54D11*
X7226508Y9427212D03*
G54D11*
X6161408Y9452712D03*
G54D11*
X6110208D03*
G54D11*
X6059108D03*
G54D11*
X6007908D03*
G54D11*
Y9403512D03*
G54D11*
X6059108Y9401512D03*
G54D11*
Y9350312D03*
G54D11*
X6007908D03*
G54D11*
X6110208D03*
G54D11*
Y9401512D03*
G54D11*
X6161408D03*
G54D11*
Y9350312D03*
G54D11*
X6141708Y9220412D03*
G54D11*
X6023608D03*
G54D11*
X5901608Y9204712D03*
G54D11*
X5868108Y9238112D03*
G54D11*
X5629908Y9338512D03*
G54D11*
X5590608Y9417312D03*
G54D11*
X5669308D03*
G54D11*
X5629908Y9456612D03*
G54D11*
X4287408Y9401512D03*
G54D11*
Y9342412D03*
G54D11*
X4283508Y9149512D03*
G54D11*
X4078708Y9129812D03*
G54D11*
Y9224312D03*
G54D11*
Y9326712D03*
G54D11*
X4129908Y9393612D03*
G54D11*
X4515808Y9133812D03*
G54D11*
X4462008Y8967112D03*
G54D11*
X4291308Y8755812D03*
G54D11*
X4129908Y8787312D03*
G54D11*
X4094508Y8673212D03*
G54D11*
X4086608Y8929112D03*
G54D11*
X4078708Y9027512D03*
G54D11*
X4098408Y8015712D03*
G54D11*
X4933108Y7956612D03*
G54D11*
X5094508D03*
G54D11*
X5090608Y7877912D03*
G54D11*
X5177208Y7881812D03*
G54D11*
X5263808Y7870012D03*
G54D11*
X5463408Y7907812D03*
G54D11*
X5515808Y8070812D03*
G54D11*
X5531508Y8133812D03*
G54D11*
X5484308Y8192812D03*
G54D11*
X5507908Y8232212D03*
G54D11*
X5582708Y8279512D03*
G54D11*
X5608308Y8427112D03*
G54D11*
X5669308Y8590512D03*
G54D11*
X5728408D03*
G54D11*
X5787408D03*
G54D11*
X5846508D03*
G54D11*
X6094508Y8582612D03*
G54D11*
X6157508D03*
G54D11*
X6220508Y8413312D03*
G54D11*
X6003908Y8421212D03*
G54D11*
X6023608Y8244012D03*
G54D11*
X5950208Y8236112D03*
G54D11*
X5925208Y8192812D03*
G54D11*
X6063008Y8196812D03*
G54D11*
X6066908Y7905412D03*
G54D11*
X5984308Y7858212D03*
G54D11*
X5897608Y7818812D03*
G54D11*
X5838608Y7901512D03*
G54D11*
X5787408Y7944812D03*
G54D11*
X5748008Y7980212D03*
G54D11*
Y8039312D03*
G54D11*
X5728408Y8212512D03*
G54D11*
X5783508Y8220412D03*
G54D11*
X5661008Y7694812D03*
G54D11*
X5586008Y7736812D03*
G54D11*
X5523608Y7716512D03*
G54D11*
Y7507812D03*
G54D11*
X5433108D03*
G54D11*
X5681108Y7551112D03*
G54D11*
X5161408Y7543212D03*
G54D11*
X5165408Y7724312D03*
G54D11*
X5193308Y8039312D03*
G54D11*
X5178008Y8493812D03*
G54D11*
X5521008Y8655812D03*
G54D11*
X5972408Y8830612D03*
G54D11*
X6007908D03*
G54D11*
X5980308Y8870012D03*
G54D11*
X5944908Y8862112D03*
G54D11*
X6299208Y8905412D03*
G54D11*
Y9023512D03*
G54D11*
X6653508Y8944812D03*
G54D11*
X6712608Y8838512D03*
G54D11*
Y8669212D03*
G54D11*
X6840508D03*
G54D11*
X6614208Y8629812D03*
G54D11*
X6535408D03*
G54D11*
X6456708D03*
G54D11*
Y8551112D03*
G54D11*
X6334608Y8409412D03*
G54D11*
X6283508D03*
G54D11*
X6279508Y8338512D03*
G54D11*
X6334608Y8334612D03*
G54D11*
X6468508Y8271612D03*
G54D11*
X6755908Y8279512D03*
G54D11*
X6838608Y8295212D03*
G54D11*
X6791308Y8204712D03*
G54D11*
X6889808Y7960612D03*
G54D11*
X6968508D03*
G54D11*
X7047208D03*
G54D11*
X7126008D03*
G54D11*
X7240208D03*
G54D11*
X7322808D03*
G54D11*
X7401608D03*
G54D11*
X7480308D03*
G54D11*
X7563008Y7921212D03*
G54D11*
X7559108Y7842412D03*
G54D11*
Y7763712D03*
G54D11*
Y7685012D03*
G54D11*
X7417308Y7629812D03*
G54D11*
X7440908Y7566912D03*
G54D11*
X7519708Y7527512D03*
G54D11*
X7244108Y7566912D03*
G54D11*
Y7645612D03*
G54D11*
Y7724312D03*
G54D11*
Y7803112D03*
G54D11*
Y7881812D03*
G54D11*
X7126008Y7842412D03*
G54D11*
X7007908D03*
G54D11*
Y7724312D03*
G54D11*
X7126008D03*
G54D11*
Y7606212D03*
G54D11*
X7007908D03*
G54D11*
X6889808D03*
G54D11*
Y7724312D03*
G54D11*
Y7842412D03*
G54D11*
X6720508D03*
G54D11*
Y7913312D03*
G54D11*
X6633908Y7838512D03*
G54D11*
X6555108D03*
G54D11*
X6468508D03*
G54D11*
X6531508Y7929112D03*
G54D11*
X6401608Y7956612D03*
G54D11*
X6338608Y7901512D03*
G54D11*
X6259808Y7696812D03*
G54D11*
X7716508Y7803112D03*
G54D11*
Y8078712D03*
G54D11*
Y8196812D03*
G54D11*
Y8314912D03*
G54D11*
Y8629812D03*
G54D11*
Y8724312D03*
G54D11*
Y8826712D03*
G54D11*
X7598408Y8787312D03*
G54D11*
Y8669212D03*
G54D11*
Y8905412D03*
G54D11*
X7551208Y8925112D03*
G54D11*
X7484308D03*
G54D11*
X7413408D03*
G54D11*
X7551208Y8992112D03*
G54D11*
X7090608Y8964512D03*
G54D11*
X7011808Y8913312D03*
G54D11*
X6940908Y8862112D03*
G54D11*
X7226508Y8720412D03*
G54D11*
X7460608Y8177112D03*
G54D11*
X7519708Y7448712D03*
G54D11*
X7598408Y7409412D03*
G54D11*
X7716508D03*
G54D11*
X7244108Y7373912D03*
G54D11*
X7173208D03*
G54D11*
X7102408Y7370012D03*
G54D11*
X7007908Y7488112D03*
G54D11*
X6889808D03*
G54D11*
X6259808Y7456612D03*
G54D11*
X5807108Y7429112D03*
G54D11*
X5523608Y7440912D03*
G54D11*
X5437008Y7444812D03*
G54D11*
X5366108Y7373912D03*
G54D12*
X7702808Y9377912D03*
G54D12*
Y9173212D03*
G54D12*
Y7700712D03*
G54D12*
Y7496012D03*
G54D13*
X5736208D03*
G54D13*
Y7429112D03*
G54D14*
X6129908Y7452712D03*
G54D14*
X5937808D03*
G54D15*
X6489808Y7456612D03*
G54D15*
X6389808D03*
G54D16*
X4137808Y7657412D03*
G54D16*
X7712608Y7863312D03*
G54D16*
Y7963312D03*
G54D16*
Y8386912D03*
G54D16*
Y8486912D03*
G54D16*
Y8910612D03*
G54D16*
Y9010612D03*
G54D16*
X4137808Y7460612D03*
G54D17*
X5128908Y7645612D03*
G54D17*
X4835608D03*
G54D18*
X4626008Y9381812D03*
G54D18*
Y9216512D03*
G54D18*
X4409508D03*
G54D18*
Y9381812D03*
G54D18*
Y9051112D03*
G54D18*
X4626008D03*
G54D18*
Y8799112D03*
G54D18*
Y8633812D03*
G54D18*
Y8468412D03*
G54D18*
Y8303112D03*
G54D18*
X4409508D03*
G54D18*
Y8468412D03*
G54D18*
Y8633812D03*
G54D18*
Y8799112D03*
G54D18*
Y8047212D03*
G54D18*
Y7881812D03*
G54D18*
X4626008D03*
G54D18*
Y8047212D03*
G54D19*
X196850Y98425D03*
Y9712598D03*
X7677165Y98425D03*
M02*
